{
  "ABE": {
    "message": "ABE"
  },
  "ABE.accesskey": {
    "message": "A"
  },
  "ABE.chooseEditor": {
    "message": "Favor selecionar um editor de texto para ajuste de regras do ABE"
  },
  "ABE.disable.accesskey": {
    "message": "D"
  },
  "ABE.disable.label": {
    "message": "Desativar"
  },
  "ABE.edit.accesskey": {
    "message": "E"
  },
  "ABE.edit.label": {
    "message": "Editar..."
  },
  "ABE.enable.accesskey": {
    "message": "A"
  },
  "ABE.enable.label": {
    "message": "Ativar"
  },
  "ABE.enabled.label": {
    "message": "Ativar ABE (Application Boundaries Enforcer)"
  },
  "ABE.notify": {
    "message": "Requisição $1 filtrada por ABE:<$2> $3"
  },
  "ABE.refresh.accesskey": {
    "message": "t"
  },
  "ABE.refresh.label": {
    "message": "Atualizar"
  },
  "ABE.rulesets.label": {
    "message": "Ajustes de regras"
  },
  "ABE.siteEnabled.label": {
    "message": "Permitir que sites usem suas próprias regras"
  },
  "ABE.syntaxError": {
    "message": "Erro de sintaxe no conjunto de regras ABE!"
  },
  "ABE.wanIpAsLocal": {
    "message": "WAN IP ($1) ∈ LOCAL"
  },
  "Add": {
    "message": "Adicionar"
  },
  "Add.accesskey": {
    "message": "A"
  },
  "AdditionalPermissions": {
    "message": "Permissões adicionais para sites confiáveis"
  },
  "AdditionalRestrictions": {
    "message": "Restrições adicionais para sites não confiáveis"
  },
  "Advanced": {
    "message": "Avançado"
  },
  "Allow": {
    "message": "Permitir"
  },
  "Allow.accesskey": {
    "message": "P"
  },
  "AllowBookmarks": {
    "message": "Permitir sites abertos pelos favoritos"
  },
  "AllowClipboard": {
    "message": "Permitir copiar e colar texto a partir da área de transferência"
  },
  "AllowLocalLinks": {
    "message": "Permitir links locais"
  },
  "AllowPage": {
    "message": "Permitir todos nesta página"
  },
  "AllowPage.accesskey": {
    "message": "t"
  },
  "AllowPing": {
    "message": "Permitir <A PING…>"
  },
  "AllowViaBookmarks": {
    "message": "Permitir sites abertos pelos favoritos"
  },
  "AlwaysBlockUntrustedContent": {
    "message": "Bloquear todos os objetos provenientes de um site marcado como não confiável"
  },
  "Appearance": {
    "message": "Aparência"
  },
  "AutoAllowTopLevel": {
    "message": "Permitir temporariamente todos os sites de alto nível por padrão"
  },
  "AutoReload": {
    "message": "Atualizar automaticamente a página atual quando as permissões são alteradas."
  },
  "BaseDom": {
    "message": "Base de domínios do 2º nível (noscript.net)"
  },
  "BlockedObjects": {
    "message": "Objetos bloqueados"
  },
  "BookmarkSync": {
    "message": "Fazer backup da configuração do NoScript em um favorito para fácil sincronização"
  },
  "ClearClickDescription": {
    "message": "O NoScript interceptou uma interação por mouse ou teclado com um elemento parcialmente oculto. Clique na imagem para rodar entre a versão oculta e a versão clara."
  },
  "ClearClickHeader": {
    "message": "Clickjacking em potencial / Tentativa de redirecionamento da interface do usuário!"
  },
  "ClearClickOpt": {
    "message": "Proteção Clearclick nas páginas..."
  },
  "ClearClickReport": {
    "message": "Relatório"
  },
  "ClearClickReport.accesskey": {
    "message": "R"
  },
  "ClearClickReportId": {
    "message": "ID do Relatório:"
  },
  "ClearClickTitle": {
    "message": "Alerte de ClearClick"
  },
  "Close": {
    "message": "Fechar"
  },
  "CollapseBlockedObjects": {
    "message": "Quebrar objetos bloqueados"
  },
  "ConfirmUnblock": {
    "message": "Pedir confirmação antes de desbloquear temporariamente um objeto"
  },
  "ContentBlocker": {
    "message": "Aplicar restrições a sites confiáveis também."
  },
  "CtxMenu": {
    "message": "Menu de Contexto"
  },
  "DefaultPolicies": {
    "message": "Políticas Padrão"
  },
  "Description": {
    "message": "Proteção extra para o seu Firefox: O NoScript permite o uso de JavaScripts, Flash (e outros plugins) somente para os domínios confiáveis que você selecionar (como por exemplo no site do seu internet banking). Esse bloqueio baseado em uma lista branca previne a exploração de vulnerabilidades de segurança (conhecidas e  até mesmo as desconhecidas!) sem perda de desempenho… Usuários e especialistas concordam: o Firefox é realmente mais seguro com o NoScript :-)"
  },
  "Donate": {
    "message": "Doar"
  },
  "Donate.accesskey": {
    "message": "o"
  },
  "Embeddings": {
    "message": "Objetos Integrados"
  },
  "Exceptions": {
    "message": "Exceções…"
  },
  "Export": {
    "message": "Exportar"
  },
  "Export.accesskey": {
    "message": "E"
  },
  "FixLinks": {
    "message": "Tentar corrigir links JavaScript"
  },
  "Forbid": {
    "message": "Proibir"
  },
  "Forbid.accesskey": {
    "message": "P"
  },
  "ForbidBookmarklets": {
    "message": "Proibir livretos de favoritos"
  },
  "ForbidFlash": {
    "message": "Proibir Adobe® Flash®"
  },
  "ForbidFonts": {
    "message": "Proibir @font-face"
  },
  "ForbidFrames": {
    "message": "Proibir <FRAMES>"
  },
  "ForbidIFrames": {
    "message": "Proibir <IFRAME>"
  },
  "ForbidJava": {
    "message": "Proibir Java™"
  },
  "ForbidMedia": {
    "message": "Proibir <AUDIO> / <VIDEO>"
  },
  "ForbidMetaRefresh": {
    "message": "Proibir redirecionamentos META dentro de elementos <NOSCRIPT>"
  },
  "ForbidMetaRefresh.accesskey": {
    "message": "A"
  },
  "ForbidPing": {
    "message": "Proibir <A PING…>"
  },
  "ForbidPlugins": {
    "message": "Proibir outros plugins"
  },
  "ForbidSilverlight": {
    "message": "Proibir Microsoft® Silverlight™"
  },
  "ForbidWebGL": {
    "message": "Proibir WebGL"
  },
  "ForbidXSLT": {
    "message": "Proibir XSLT"
  },
  "FrameOptErr.desc": {
    "message": "Para aumentar sua segurança, o publicador desse conteúdo não permite que ele seja mostrado num frame."
  },
  "FrameOptErr.link": {
    "message": "Clique aqui para abrir esse conteúdo em uma nova janela"
  },
  "FrameOptErr.title": {
    "message": "Esse conteúdo não pode ser mostrado num frame"
  },
  "FullAddr": {
    "message": "Endereços completos (http://www.noscript.net)"
  },
  "FullDom": {
    "message": "Domínios completos (www.noscript.net)"
  },
  "General": {
    "message": "Geral"
  },
  "GloballyEnabled": {
    "message": "JavaScript Globalmente Permitido (perigoso)"
  },
  "Https": {
    "message": "HTTPS"
  },
  "Https.always": {
    "message": "Sempre"
  },
  "Https.behavior": {
    "message": "Comportamento"
  },
  "Https.cookies": {
    "message": "Cookies"
  },
  "Https.description": {
    "message": "Proibir conteúdo web ativo a não ser que venha de uma conexão segura (HTTPS)."
  },
  "Https.never": {
    "message": "Nunca"
  },
  "Https.proxy": {
    "message": "Quando estiver usando um proxy (recomendado com Tor)"
  },
  "HttpsFaq": {
    "message": "FAQ HTTPS"
  },
  "HttpsFaq.accesskey": {
    "message": "Q"
  },
  "HttpsForced": {
    "message": "Forçar os sites seguintes a usarem conexões seguras (HTTPS):"
  },
  "HttpsForcedExceptions": {
    "message": "Nunca forçar conexão segura (HTTPS) para os sites seguintes:"
  },
  "Import": {
    "message": "Importar"
  },
  "Import.accesskey": {
    "message": "I"
  },
  "KeepLocked": {
    "message": "Manter esse elemento travado (recomendado)"
  },
  "MatchSample": {
    "message": "Exemplo ilustrativo de combinação:"
  },
  "Next": {
    "message": "Próximo"
  },
  "NoUntrustedPlaceholder": {
    "message": "Nenhum placeholder para objetos provenientes de sites marcados como não confiáveis"
  },
  "Notifications": {
    "message": "Notificações"
  },
  "Notify": {
    "message": "Mostrar mensagens sobre os scripts bloqueados"
  },
  "Notify.bottom": {
    "message": "Mostrar mensagens no botão"
  },
  "NotifyMeta": {
    "message": "Exibir mensagem sobre META redirecionamentos bloqueados"
  },
  "NotifyMeta.accesskey": {
    "message": "R"
  },
  "NselForce": {
    "message": "Mostrar o elemento <NOSCRIPT> que perseguiu um script bloqueado <SCRIPT>"
  },
  "NselNever": {
    "message": "Ocultar elementos <NOSCRIPT>"
  },
  "OptBlockCssScanners": {
    "message": "Bloquear varredores baseados em CSS"
  },
  "OptFilterXGet": {
    "message": "Desinfectar requerimentos suspeitos via site"
  },
  "OptFilterXPost": {
    "message": "Alterar requerimentos perigosos via site em requerimentos sem dados"
  },
  "Options": {
    "message": "Opções"
  },
  "Options.accesskey": {
    "message": "O"
  },
  "OptionsLong": {
    "message": "Opções do NoScript"
  },
  "OptionsWidth": {
    "message": "40em"
  },
  "Permissions": {
    "message": "Permissões"
  },
  "PermissionsText": {
    "message": "Você pode especificar os sites que podem executar JavaScripts. Escreva o endereço ou o domínio (ex \"http://www.site.com\" ou \"site.com\") do site que deseja permitir e depois clique em Permitir."
  },
  "Plugins": {
    "message": "Plugins"
  },
  "Policies": {
    "message": "Políticas"
  },
  "Preset": {
    "message": "Nível de segurança"
  },
  "Preset.high": {
    "message": "Fortaleza (bloqueio completo)"
  },
  "Preset.low": {
    "message": "Tranquilo (Blacklist + Web Security)"
  },
  "Preset.medium": {
    "message": "Clássico (Whitelist + Web Security)"
  },
  "Preset.off": {
    "message": "Nenhum (está falando sério?!)"
  },
  "Prev": {
    "message": "Anterior"
  },
  "RecentBlocked": {
    "message": "Sites bloqueados recentemente"
  },
  "Refresh": {
    "message": "Atualizar"
  },
  "ReloadWarn": {
    "message": "Estas opções terão efeito em páginas novas ou (manualmente) atualizadas."
  },
  "RemoveSelected": {
    "message": "Remover Sites Selecionados"
  },
  "Reset": {
    "message": "Restaurar"
  },
  "Reset.accesskey": {
    "message": "R"
  },
  "ResetDef": {
    "message": "Restaurar para os padrões"
  },
  "ResetDef.accesskey": {
    "message": "p"
  },
  "RevokeTemp": {
    "message": "Anular Permissões Temporárias"
  },
  "RevokeTemp.accesskey": {
    "message": "A"
  },
  "SecureCookies": {
    "message": "Ativar Gerenciamento Automático e Seguro de Cookies"
  },
  "SecureCookiesExceptions": {
    "message": "Ignorara cookies inseguros usados por HTTPS pelos sites seguintes:"
  },
  "SecureCookiesForced": {
    "message": "Forçar encriptação para todos os cookies usados por HTTPS pelos sites seguintes:"
  },
  "SecurityManager": {
    "message": "Gerenciador de segurança"
  },
  "Show": {
    "message": "Mostrar…"
  },
  "ShowConsole": {
    "message": "Mostrar Console…"
  },
  "ShowConsole.accesskey": {
    "message": "M"
  },
  "ShowPlaceholder": {
    "message": "Mostrar ícone de substituição"
  },
  "ShowReleaseNotes": {
    "message": "Mostra as notas de lançamento das atualizações"
  },
  "SiteManager": {
    "message": "Gerenciador de Sites"
  },
  "SitePolicies": {
    "message": "Políticas Específicas do Site"
  },
  "StatusIcon": {
    "message": "Ícone da Barra de Status"
  },
  "StatusLabel": {
    "message": "Informações na barra de status"
  },
  "TempAllowPage": {
    "message": "Autorizar tudo temporariamente nesta página"
  },
  "TempAllowPage.accesskey": {
    "message": "P"
  },
  "TempCmd": {
    "message": "Permitir temporariamente […]"
  },
  "TempToPerm": {
    "message": "Tornar as permissões da página permanentes"
  },
  "TempToPerm.accesskey": {
    "message": "o"
  },
  "ToolbarToggle": {
    "message": "Um clique esquerdo no botão do NoScript na barra de ferramentas altera as permissões para o site atual"
  },
  "TruncateTitle": {
    "message": "Quebrar títulos dos documentos"
  },
  "Trust": {
    "message": "Marcar como Confiável"
  },
  "Trust.accesskey": {
    "message": "C"
  },
  "Trusted": {
    "message": "Confiável"
  },
  "TrustedPagesAdj": {
    "message": "confiável"
  },
  "Uninstall": {
    "message": "Desinstalar"
  },
  "Unknown": {
    "message": "Desconhecido"
  },
  "UnsafeReload": {
    "message": "Recarregamento Inseguro"
  },
  "UnsafeReload.accesskey": {
    "message": "R"
  },
  "Untrust": {
    "message": "Marcar como Não Confiável"
  },
  "Untrust.accesskey": {
    "message": "N"
  },
  "Untrusted": {
    "message": "Não confiável"
  },
  "UntrustedPagesAdj": {
    "message": "não confiável"
  },
  "WebAddress": {
    "message": "Endereço:"
  },
  "Whitelist": {
    "message": "Lista Branca"
  },
  "Xss": {
    "message": "XSS"
  },
  "Xss.accesskey": {
    "message": "X"
  },
  "XssExceptions": {
    "message": "Proteção Anti-XSS através das exceções"
  },
  "XssExceptions.description": {
    "message": "Os destinos que combinarem essas expressões NÃO serão protegidos do XSS"
  },
  "XssFaq": {
    "message": "Perguntas e respostas do XSS …"
  },
  "XssFaq.accesskey": {
    "message": "P"
  },
  "about": {
    "message": "Sobre $1"
  },
  "allowFrom": {
    "message": "Permitir tudo de $1"
  },
  "allowGlobal": {
    "message": "Permitir JavaScript Globalmente (perigoso)"
  },
  "allowLocal": {
    "message": "Permitir $1"
  },
  "allowTemp": {
    "message": "Temporariamente permitir $1"
  },
  "allowTempFrom": {
    "message": "Temporariamente permitir tudo de $1"
  },
  "allowed.glb": {
    "message": "Perigo! JavaScript Permitido Globalmente"
  },
  "allowed.no": {
    "message": "JavaScripts Atualmente Proibidos"
  },
  "allowed.prt": {
    "message": "JavaScripts Parcialmente Permitidos"
  },
  "allowed.yes": {
    "message": "JavaScripts Atualmente Permitidos"
  },
  "alwaysAsk": {
    "message": "Sempre pedir confirmação"
  },
  "audio.samples": {
    "message": "Amostras de Áudio"
  },
  "bookmarkSync.confirm": {
    "message": "O NoScript descobriu uma configuração dos favoritos aparentemente salva em\n$1.\nVocê realmente quer sobrescrever suas configurações locais do NoScript com o conteúdo desse favorito?"
  },
  "bookmarkSync.message": {
    "message": "Esse favorito NÃo foi feito para ser aberto, mas para ser sincronizado utilizando um serviço como o Weave ou a extensão XMarks."
  },
  "bookmarkSync.title": {
    "message": "Configuração de Favoritos do NoScript"
  },
  "changelog": {
    "message": "Histórico de mudanças"
  },
  "changelog.tip": {
    "message": "Mostrar histórico de mudanças"
  },
  "confirm": {
    "message": "Tem certeza?"
  },
  "disable": {
    "message": "Desativar $1"
  },
  "disable.accessKey": {
    "message": "D"
  },
  "distrust": {
    "message": "Marcar $1 como não confiável"
  },
  "extensionContributors": {
    "message": "Colaboradores:"
  },
  "extensionContributors.tip": {
    "message": "Pessoas a quem você deve agradecer por esta extensão"
  },
  "extensionCreator.tip": {
    "message": "Visitar página do autor"
  },
  "extensionCreatorLabel": {
    "message": "Autor:"
  },
  "extensionHomepage.tip": {
    "message": "Visitar página da extensão"
  },
  "extensions.{73a6fe31-595d-460b-a920-fcc0f8843232}.description": {
    "message": "Proteção extra para o seu Firefox: O NoScript permite o uso de JavaScripts, Java (e outros plugins) somente para os domínios confiáveis que você selecionar (por exemplo, no site do seu banco). Esse bloqueio baseado em uma lista branca previne a exploração de vulnerabilidades de segurança (conhecidas e até mesmo desconhecidas!) sem perda de funcionalidades… Usuários e especialistas concordam: o Firefox é realmente mais seguro com o NoScript :-)"
  },
  "forbidGlobal": {
    "message": "Proibir JavaScript Globalmente (recomendado)"
  },
  "forbidLocal": {
    "message": "Proibir $1"
  },
  "global.warning.text": {
    "message": "Os JavaScripts serão globalmente permitidos (em qualquer site).\n Esta é uma ação potencialmente perigosa.\nTem certeza que deseja prosseguir?"
  },
  "global.warning.title": {
    "message": "Alerta!"
  },
  "informaction.tip": {
    "message": "Visitar página da InformAction"
  },
  "license": {
    "message": "Licença"
  },
  "license.tip": {
    "message": "Ler licença do usuário"
  },
  "logo.tip": {
    "message": "Visitar página da extensão"
  },
  "metaRefresh.notify": {
    "message": "O NoScript bloqueou um redirecionamento <META> dentro de um elemento do <NOSCRIPT>: $1 em $2 segundos."
  },
  "metaRefresh.notify.follow": {
    "message": "Perseguir redirecionamento"
  },
  "metaRefresh.notify.follow.accessKey": {
    "message": "F"
  },
  "notify.options": {
    "message": "Opções"
  },
  "notify.options.accessKey": {
    "message": "O"
  },
  "notifyHide": {
    "message": "Ocultar após $1 segundos"
  },
  "reset.title": {
    "message": "Restaurar configurações do NoScript"
  },
  "reset.warning": {
    "message": "TODAS as configurações do NoScript e permissões de sites serão restauradas aos seus valores padrão imediatamente.\nEsta ação não poderá ser revertida.\nQuer prosseguir?"
  },
  "siteInfo.confirm": {
    "message": "Você está prestes a pedir informações sobre o site \"$1\"\nao fazer uma consulta ao $2.\nDeseja continuar?"
  },
  "siteInfo.tooltip": {
    "message": "Click com o botão do meio, ou Shift click para informações do site…"
  },
  "sponsor.tip": {
    "message": "Visitar página dos patrocinadores"
  },
  "trust": {
    "message": "Confiar $1"
  },
  "unsafeReload.warning": {
    "message": "Recarregamento INSEGURO e suspeito\n\n$1 [$2}\n\nDE [$3]\n\nO NoScript NÃO protegerá este requerimento!\n"
  },
  "untrustedOrigin": {
    "message": "uma origem não confiável"
  },
  "version": {
    "message": "Versão $1"
  },
  "xss.notify.generic": {
    "message": "O NoScript filtrou uma tentativa de uso de script via site(XSS) vinda de $1. Detalhes técnicos foram gravados no Console."
  },
  "xss.notify.showConsole": {
    "message": "Mostrar Console…"
  },
  "xss.notify.showConsole.accessKey": {
    "message": "S"
  },
  "xss.reason.filterXGet": {
    "message": "Desinfectou um requerimento suspeito. URL original [$1] requerido por [$2]. URL desinfectada: [$3]."
  },
  "xss.reason.filterXGetRef": {
    "message": "Desinfectou um requerimento de referência suspeita. URL [$1] requerida por [$2]. Referência desinfectada: [$3]."
  },
  "xss.reason.filterXPost": {
    "message": "Desinfectou um envio de arquivo suspeito de [$1] para [$2]: transformado em um requerimento do tipo somente download."
  }
}