{
  "ABE": {
    "message": "ABE"
  },
  "ABE.accesskey": {
    "message": "A"
  },
  "ABE.chooseEditor": {
    "message": "Valitse tekstieditori ABE säännöille"
  },
  "ABE.disable.accesskey": {
    "message": "P"
  },
  "ABE.disable.label": {
    "message": "Poista käytöstä"
  },
  "ABE.edit.accesskey": {
    "message": "M"
  },
  "ABE.edit.label": {
    "message": "Muokkaa…"
  },
  "ABE.enable.accesskey": {
    "message": "K"
  },
  "ABE.enable.label": {
    "message": "Käytä"
  },
  "ABE.enabled.label": {
    "message": "Käytä ABE:tä (Application Boundaries Enforcer)"
  },
  "ABE.notify": {
    "message": "Pyyntö $1 suodattanut ABE: <$2> $3"
  },
  "ABE.refresh.accesskey": {
    "message": "P"
  },
  "ABE.refresh.label": {
    "message": "Päivitä"
  },
  "ABE.rulesets.label": {
    "message": "Säännöt:"
  },
  "ABE.siteEnabled.label": {
    "message": "Sivustot voivat tarjota omia sääntöjään"
  },
  "ABE.syntaxError": {
    "message": "Syntaksivirhe ABE säännössä!"
  },
  "ABE.wanIpAsLocal": {
    "message": "WAN IP ($1) ∈ LOCAL"
  },
  "Add": {
    "message": "Lisää"
  },
  "Add.accesskey": {
    "message": "L"
  },
  "AdditionalPermissions": {
    "message": "Lisäoikeudet luotetuille sivustoille"
  },
  "AdditionalRestrictions": {
    "message": "Lisäestot epäluotettaville sivustoille"
  },
  "Advanced": {
    "message": "Lisäasetukset"
  },
  "Allow": {
    "message": "Salli"
  },
  "Allow.accesskey": {
    "message": "l"
  },
  "AllowBookmarks": {
    "message": "Salli kirjanmerkkien kautta avatut sivustot"
  },
  "AllowClipboard": {
    "message": "Salli \"rich text\" kopiointi ja liittäminen ulkoiselta leikepöydältä"
  },
  "AllowLocalLinks": {
    "message": "Salli paikalliset linkit"
  },
  "AllowPage": {
    "message": "Salli kaikki tällä sivulla"
  },
  "AllowPage.accesskey": {
    "message": "S"
  },
  "AllowPing": {
    "message": "Salli <A PING…>"
  },
  "AllowViaBookmarks": {
    "message": "Salli kirjanmerkkien kautta avatut sivustot"
  },
  "AlwaysBlockUntrustedContent": {
    "message": "Estä jokainen kohde joka tulee epäluotettavalta sivulta"
  },
  "Appearance": {
    "message": "Ulkoasu"
  },
  "AutoAllowTopLevel": {
    "message": "Tilapäisesti salli ylimmän tason sivustot oletusarvoisesti"
  },
  "AutoReload": {
    "message": "Lataa sivut automaattisesti uudelleen jos oikeudet muuttuvat"
  },
  "BaseDom": {
    "message": "Tason 2 osoitenimet (noscript.net)"
  },
  "BlockedObjects": {
    "message": "Estetyt kohteet"
  },
  "BookmarkSync": {
    "message": "Varmuuskopioi NoScript asetukset kirjanmerkkiin helppoa synkronointia varten"
  },
  "ClearClickDescription": {
    "message": "NoScript keskeytti hiiri- tai näppäimistö vuorovaikutuksen osittain piilotettuun kohteeseen. Klikkaa kuvaa alla vaihtaaksesi sumennetun ja selkeän version välillä."
  },
  "ClearClickHeader": {
    "message": "Mahdollinen klikkauksen kaappaus / käyttöliittym. naamiointi yritys!"
  },
  "ClearClickOpt": {
    "message": "ClearClick suojaus sivuilla…"
  },
  "ClearClickReport": {
    "message": "Raportoi"
  },
  "ClearClickReport.accesskey": {
    "message": "R"
  },
  "ClearClickReportId": {
    "message": "Raportin ID:"
  },
  "ClearClickTitle": {
    "message": "ClearClick varoitus"
  },
  "Close": {
    "message": "Sulje"
  },
  "CollapseBlockedObjects": {
    "message": "Supista estetyt kohteet"
  },
  "ConfirmUnblock": {
    "message": "Kysy hyväksyntä ennen tilapäistä kohteen vapauttamista"
  },
  "ContentBlocker": {
    "message": "Käytä näitä rajoituksia myös sallituille sivustoille"
  },
  "CtxMenu": {
    "message": "Hiiren 2. napin valikko"
  },
  "DefaultPolicies": {
    "message": "Oletus käytännöt"
  },
  "Description": {
    "message": "Lisäsuoja selaimelle Firefox: NoScript sallii JavaScript, Flash (ja muut lisäkkeet) vain valitsemiltasi luotettavilta sivustoilta (esim. oman verkkopankin kotisivu). Tämä sallittujen listaan perustuva ennakoiva lähestymistapa estää tietoturva haavoittuvuuksien hyväksikäyttöä (tunnettujen ja jopa tuntemattomien!) ilman, että toimivuus heikentyy... Asiantuntijat ovat samaa mieltä: Firefox on oikeasti turvallisempi NoScript'in kanssa :-)"
  },
  "Donate": {
    "message": "Lahjoita"
  },
  "Donate.accesskey": {
    "message": "o"
  },
  "Embeddings": {
    "message": "Sulautetut"
  },
  "Exceptions": {
    "message": "Poikkeukset…"
  },
  "Export": {
    "message": "Vie"
  },
  "Export.accesskey": {
    "message": "V"
  },
  "FixLinks": {
    "message": "Yritä korjata JavaScript linkit"
  },
  "Forbid": {
    "message": "Kiellä"
  },
  "Forbid.accesskey": {
    "message": "K"
  },
  "ForbidBookmarklets": {
    "message": "Estä kirjanmerkki lisäkkeet"
  },
  "ForbidFlash": {
    "message": "Estä Adobe® Flash®"
  },
  "ForbidFonts": {
    "message": "Estä @font-face"
  },
  "ForbidFrames": {
    "message": "Estä <FRAME>"
  },
  "ForbidIFrames": {
    "message": "Estä <IFRAME>"
  },
  "ForbidJava": {
    "message": "Estä Java™"
  },
  "ForbidMedia": {
    "message": "Estä <AUDIO> / <VIDEO>"
  },
  "ForbidMetaRefresh": {
    "message": "Estä META uudelleenohjaukset <NOSCRIPT> elementtien sisällä"
  },
  "ForbidMetaRefresh.accesskey": {
    "message": "U"
  },
  "ForbidPing": {
    "message": "Estä <A PING…>"
  },
  "ForbidPlugins": {
    "message": "Estä muut lisäkkeet"
  },
  "ForbidSilverlight": {
    "message": "Estä Microsoft® Silverlight™"
  },
  "ForbidWebGL": {
    "message": "Estä WebGL"
  },
  "ForbidXSLT": {
    "message": "Estä XSLT"
  },
  "FrameOptErr.desc": {
    "message": "Tämän sisällön julkaisija ei turvallisuus syistä anna sen näkyä kehyksessä."
  },
  "FrameOptErr.link": {
    "message": "Klikkaa tästä avataksesi tämän sisällön uuteen ikkunaan"
  },
  "FrameOptErr.title": {
    "message": "Tätä sisältöä ei voida näyttää kehyksessä"
  },
  "FullAddr": {
    "message": "Koko verkko-osoitteet (http://www.noscript.net)"
  },
  "FullDom": {
    "message": "Koko osoitenimet (www.noscript.net)"
  },
  "General": {
    "message": "Yleistä"
  },
  "GloballyEnabled": {
    "message": "Scriptit yleisesti sallittuja (turvaton)"
  },
  "Https": {
    "message": "HTTPS"
  },
  "Https.always": {
    "message": "Aina"
  },
  "Https.behavior": {
    "message": "Käyttäytyminen"
  },
  "Https.cookies": {
    "message": "Evästeet"
  },
  "Https.description": {
    "message": "Estä aktiivinen web-sisältö ellei se tule suojatusta (HTTPS) yhteydestä:"
  },
  "Https.never": {
    "message": "Ei koskaan"
  },
  "Https.proxy": {
    "message": "Kun välityspalvelinta käytetään (suositeltavaa Tor käytössä)"
  },
  "HttpsFaq": {
    "message": "HTTPS usein kysytyt…"
  },
  "HttpsFaq.accesskey": {
    "message": "U"
  },
  "HttpsForced": {
    "message": "Pakota seuraavat sivustot käyttämään suojattua (HTTPS) yhteyttä:"
  },
  "HttpsForcedExceptions": {
    "message": "Älä koskaan pakota suojattua (HTTPS) yhteyttä seuraavista sivuista:"
  },
  "Import": {
    "message": "Tuo"
  },
  "Import.accesskey": {
    "message": "T"
  },
  "KeepLocked": {
    "message": "Pidä tämä elementti lukittuna (suositus)"
  },
  "MatchSample": {
    "message": "Kaavan sopivuus näyte:"
  },
  "Next": {
    "message": "Seuraava"
  },
  "NoUntrustedPlaceholder": {
    "message": "Ei paikkamerkkiä kohteille jotka merkitty epäluotettaviksi"
  },
  "Notifications": {
    "message": "Ilmoitukset"
  },
  "Notify": {
    "message": "Näytä viesti estetyistä scripteistä"
  },
  "Notify.bottom": {
    "message": "Sijoita viesti alas"
  },
  "NotifyMeta": {
    "message": "Näytä viesti estetyistä META uudelleenohjauksista"
  },
  "NotifyMeta.accesskey": {
    "message": "U"
  },
  "NselForce": {
    "message": "Näytä <NOSCRIPT> elementit jotka seuraavat estettyä <SCRIPT>"
  },
  "NselNever": {
    "message": "Piilota <NOSCRIPT> elementit"
  },
  "OptBlockCssScanners": {
    "message": "Estä CSS-pohjaiset skannerit"
  },
  "OptFilterXGet": {
    "message": "Siisti sivustojen väliset epäilyttävät pyynnöt"
  },
  "OptFilterXPost": {
    "message": "Muuta sivustojen väliset POST-pyynnöt vähemmän tietoja sis. GET pyynnöiksi"
  },
  "Options": {
    "message": "Asetukset…"
  },
  "Options.accesskey": {
    "message": "O"
  },
  "OptionsLong": {
    "message": "NoScript asetukset"
  },
  "OptionsWidth": {
    "message": "40em"
  },
  "Permissions": {
    "message": "Käyttöoikeudet"
  },
  "PermissionsText": {
    "message": "Voit määrittää verkkosivut joiden sallitaan suorittaa scriptejä. Kirjoita verkko-osoite tai verkkonimi (esim. \"http://www.site.com\" tai \"site.com\") jonka haluat sallia ja paina Salli."
  },
  "Plugins": {
    "message": "Liitännäiset"
  },
  "Policies": {
    "message": "Käytännöt"
  },
  "Preset": {
    "message": "Suojaustaso"
  },
  "Preset.high": {
    "message": "Linnake (täysi lukitus)"
  },
  "Preset.low": {
    "message": "Kevyt (estolista + Web Security)"
  },
  "Preset.medium": {
    "message": "Klassinen (sallittujen lista + Web Security)"
  },
  "Preset.off": {
    "message": "Pois (oletko tosissasi?!)"
  },
  "Prev": {
    "message": "Edellinen"
  },
  "RecentBlocked": {
    "message": "Viimeksi estetyt sivustot"
  },
  "Refresh": {
    "message": "Päivitä"
  },
  "ReloadWarn": {
    "message": "Nämä asetukset tulevat voimaan uusilla tai uudelleen ladatuilla sivuilla"
  },
  "RemoveSelected": {
    "message": "Poista valitut sivut"
  },
  "Reset": {
    "message": "Nollaa"
  },
  "Reset.accesskey": {
    "message": "o"
  },
  "ResetDef": {
    "message": "Palauta oletukset"
  },
  "ResetDef.accesskey": {
    "message": "o"
  },
  "RevokeTemp": {
    "message": "Peruuta tilapäiset oikeudet"
  },
  "RevokeTemp.accesskey": {
    "message": "t"
  },
  "SecureCookies": {
    "message": "Ota käyttöön automaattinen suojattujen evästeiden hallinta"
  },
  "SecureCookiesExceptions": {
    "message": "Ohita suojaamattomat evästeet HTTPS yhteydessä seuraavista sivuista:"
  },
  "SecureCookiesForced": {
    "message": "Pakota salaus kaikkiin evästeisiin HTTPS yhteydessä seuraavista sivuista:"
  },
  "SecurityManager": {
    "message": "Suojausten hallinta"
  },
  "Show": {
    "message": "Näytä…"
  },
  "ShowConsole": {
    "message": "Näytä konsoli…"
  },
  "ShowConsole.accesskey": {
    "message": "S"
  },
  "ShowPlaceholder": {
    "message": "Näytä sijoitettu kuvake"
  },
  "ShowReleaseNotes": {
    "message": "Näytä julkaisutiedot päivityksen yhteydessä"
  },
  "SiteManager": {
    "message": "Sivustojen hallinta"
  },
  "SitePolicies": {
    "message": "Sivustokohtaiset käytännöt"
  },
  "StatusIcon": {
    "message": "Tilapalkin kuvake"
  },
  "StatusLabel": {
    "message": "Tilarivin huomautukset"
  },
  "TempAllowPage": {
    "message": "Tilapäisesti salli kaikki tällä sivulla"
  },
  "TempAllowPage.accesskey": {
    "message": "T"
  },
  "TempCmd": {
    "message": "Salli tilapäisesti […]"
  },
  "TempToPerm": {
    "message": "Tee sivun oikeudet pysyviksi"
  },
  "TempToPerm.accesskey": {
    "message": "p"
  },
  "ToolbarToggle": {
    "message": "Hiiren napsautus työkalurivin NoScript painikkeeseen vaihtaa oikeudet nykyiselle sivulle"
  },
  "TruncateTitle": {
    "message": "Katkaise dokumenttien otsikot"
  },
  "Trust": {
    "message": "Merkitse luotettavaksi"
  },
  "Trust.accesskey": {
    "message": "t"
  },
  "Trusted": {
    "message": "Luotettu"
  },
  "TrustedPagesAdj": {
    "message": "luotettu"
  },
  "Uninstall": {
    "message": "Poista asennus"
  },
  "Unknown": {
    "message": "Tuntematon"
  },
  "UnsafeReload": {
    "message": "Turvaton uudelleen lataus"
  },
  "UnsafeReload.accesskey": {
    "message": "R"
  },
  "Untrust": {
    "message": "Merkitse epäluotettavaksi"
  },
  "Untrust.accesskey": {
    "message": "u"
  },
  "Untrusted": {
    "message": "Epäluotettava"
  },
  "UntrustedPagesAdj": {
    "message": "epäluotettava"
  },
  "WebAddress": {
    "message": "Verkkosivun osoite:"
  },
  "Whitelist": {
    "message": "Sallittujen lista"
  },
  "Xss": {
    "message": "XSS"
  },
  "Xss.accesskey": {
    "message": "X"
  },
  "XssExceptions": {
    "message": "Anti-XSS suojaus poikkeukset"
  },
  "XssExceptions.description": {
    "message": "Kohteet jotka sopivat näihin \"regular expression\" lausekkeisiin EIVÄT ole suojattuja XSS vastaan."
  },
  "XssFaq": {
    "message": "XSS usein kysytyt…"
  },
  "XssFaq.accesskey": {
    "message": "K"
  },
  "about": {
    "message": "Tietoja $1"
  },
  "allowFrom": {
    "message": "Salli kaikki kohteesta $1"
  },
  "allowGlobal": {
    "message": "Salli scriptit yleisesti (turvaton)"
  },
  "allowLocal": {
    "message": "Salli $1"
  },
  "allowTemp": {
    "message": "Salli tilapäisesti $1"
  },
  "allowTempFrom": {
    "message": "Tilapäisesti salli kaikki kohteesta $1"
  },
  "allowed.glb": {
    "message": "Varoitus! Scriptit käytössä kaikille sivuille"
  },
  "allowed.no": {
    "message": "Scriptit pysyvästi estetty"
  },
  "allowed.prt": {
    "message": "Scriptit osittain sallittu"
  },
  "allowed.yes": {
    "message": "Scriptit pysyvästi sallittu"
  },
  "alwaysAsk": {
    "message": "Kysy vahvistus joka kerta"
  },
  "audio.samples": {
    "message": "Ääninäytteet"
  },
  "bookmarkSync.confirm": {
    "message": "NoScript on löytänyt asetukset -kirjanmerkin ilmeisesti tallennettuna\n$1.\nHaluatko varmasti korvata paikallisen NoScript kokoonpanon tämän kirjanmerkin sisällöllä?"
  },
  "bookmarkSync.message": {
    "message": "Tätä kirjanmerkkiä EI ole tarkoitus avata, vaan synkronoida käyttäen palvelua kuten Weave tai Xmarks laajennus."
  },
  "bookmarkSync.title": {
    "message": "NoScript asetukset -kirjanmerkki"
  },
  "changelog": {
    "message": "Muutokset"
  },
  "changelog.tip": {
    "message": "Näytä versiomuutokset"
  },
  "confirm": {
    "message": "Oletko varma?"
  },
  "disable": {
    "message": "Poista käytöstä $1"
  },
  "disable.accessKey": {
    "message": "P"
  },
  "distrust": {
    "message": "Merkitse $1 epäluotettavaksi"
  },
  "extensionContributors": {
    "message": "Käännökset:"
  },
  "extensionContributors.tip": {
    "message": "Ihmisiä joita on kiittäminen tästä laajennuksesta"
  },
  "extensionCreator.tip": {
    "message": "Vieraile tekijän kotisivulla"
  },
  "extensionCreatorLabel": {
    "message": "Tekijä:"
  },
  "extensionHomepage.tip": {
    "message": "Vieraile laajennuksen kotisivulla"
  },
  "extensions.{73a6fe31-595d-460b-a920-fcc0f8843232}.description": {
    "message": "Lisäsuoja selaimelle Firefox: NoScript sallii JavaScript, Java (ja muut lisäkkeet) vain valitsemiltasi luotettavilta sivustoilta (esim. oman verkkopankin kotisivu). Tämä sallittujen listaan perustuva ennakoiva lähestymistapa estää tietoturva haavoittuvuuksien hyväksikäyttöä (tunnettujen ja jopa tuntemattomien!) ilman, että toimivuus heikentyy... Asiantuntijat ovat samaa mieltä: Firefox on oikeasti turvallisempi NoScript'in kanssa :-)"
  },
  "forbidGlobal": {
    "message": "Estä scriptit yleisesti (suositeltava)"
  },
  "forbidLocal": {
    "message": "Estä $1"
  },
  "global.warning.text": {
    "message": "Scriptit asetetaan sallituksi yleisesti (kaikille sivustoille).\n Tämä on turvaton asetus.\nHaluatko varmasti jatkaa?"
  },
  "global.warning.title": {
    "message": "Varoitus!"
  },
  "informaction.tip": {
    "message": "Vieraile InformAction kotisivulla"
  },
  "license": {
    "message": "Lisenssi"
  },
  "license.tip": {
    "message": "Lue käyttöoikeuslisenssi"
  },
  "logo.tip": {
    "message": "Vieraile laajennuksen kotisivulla"
  },
  "metaRefresh.notify": {
    "message": "NoScript esti <META> uudelleenohjauksen <NOSCRIPT> elementin sisällä: $1 $2 sekunnissa."
  },
  "metaRefresh.notify.follow": {
    "message": "Seuraa uudelleen ohjausta"
  },
  "metaRefresh.notify.follow.accessKey": {
    "message": "F"
  },
  "notify.options": {
    "message": "Valinnat"
  },
  "notify.options.accessKey": {
    "message": "O"
  },
  "notifyHide": {
    "message": "Piilota $1 sekunnin jälkeen"
  },
  "reset.title": {
    "message": "NoScript oletukset"
  },
  "reset.warning": {
    "message": "KAIKKI NoScript asetukset ja sivustojen oikeudet palautetaan oletusarvoihinsa välittömästi. \nTätä toimintoa ei voi palauttaa. \nHaluatko jatkaa?"
  },
  "siteInfo.confirm": {
    "message": "Olet aikeissa kysyä tietoja sivusta \"$1\" \nesittämällä kyselyn kohteeseen $2.\nHaluatko jatkaa?"
  },
  "siteInfo.tooltip": {
    "message": "Keskimmäinen-klik tai VAIHTO+klik avaa sivuston tietoja..."
  },
  "sponsor.tip": {
    "message": "Vieraile sponsorin kotisivulla"
  },
  "trust": {
    "message": "Luota $1"
  },
  "unsafeReload.warning": {
    "message": "TURVATTOMASTI uudelleenlataa epäilyttävän\n\n$1 [$2]\n\nKOHTEESTA [$3]\n\nNoScript EI suojaa tätä pyyntöä!\n"
  },
  "untrustedOrigin": {
    "message": "epäluotettava alkuperä"
  },
  "version": {
    "message": "Versio $1"
  },
  "xss.notify.generic": {
    "message": "NoScript suodatti mahdollisen cross-site scripting (XSS) yrityksen kohteesta $1. Tekniset yksityiskohdat on kirjattu konsoliin."
  },
  "xss.notify.showConsole": {
    "message": "Näytä konsoli..."
  },
  "xss.notify.showConsole.accessKey": {
    "message": "S"
  },
  "xss.reason.filterXGet": {
    "message": "Siistitty epäilyttävä pyyntö. Alkuperäinen URL [$1] pyydetty kohteesta [$2]. Siistitty URL: [$3]."
  },
  "xss.reason.filterXGetRef": {
    "message": "Siistitty epäilyttävä pyyntö viittaus. URL [$1] pyydetty kohteesta [$2]. Siistitty viittaus: [$3]."
  },
  "xss.reason.filterXPost": {
    "message": "Siistitty epäilyttävä lataus kohteeseen [$1] osoitteesta [$2]: muutettu vain-lataus GET pyynnöksi."
  }
}