{
  "ABE": {
    "message": "ABE"
  },
  "ABE.accesskey": {
    "message": "А"
  },
  "ABE.chooseEditor": {
    "message": "Изаберите уређивач текста за обраду ABE правила"
  },
  "ABE.disable.accesskey": {
    "message": "И"
  },
  "ABE.disable.label": {
    "message": "Исључи"
  },
  "ABE.edit.accesskey": {
    "message": "У"
  },
  "ABE.edit.label": {
    "message": "Уреди..."
  },
  "ABE.enable.accesskey": {
    "message": "у"
  },
  "ABE.enable.label": {
    "message": "Укључи"
  },
  "ABE.enabled.label": {
    "message": "Укључи ABE (Application Boundaries Enforcer)"
  },
  "ABE.notify": {
    "message": "Захтев $1 је филтрирао ABE: <$2> $3"
  },
  "ABE.refresh.accesskey": {
    "message": "О"
  },
  "ABE.refresh.label": {
    "message": "Освежи"
  },
  "ABE.rulesets.label": {
    "message": "Правила:"
  },
  "ABE.siteEnabled.label": {
    "message": "Дозволи страницама да објаве своја правила"
  },
  "Add": {
    "message": "Додај"
  },
  "Add.accesskey": {
    "message": "ј"
  },
  "AdditionalPermissions": {
    "message": "Додатне дозволе за странице којима се верује"
  },
  "AdditionalRestrictions": {
    "message": "Додатне забране за странице којима се не верује"
  },
  "Advanced": {
    "message": "Напредно"
  },
  "Allow": {
    "message": "Дозволи"
  },
  "Allow.accesskey": {
    "message": "Д"
  },
  "AllowBookmarks": {
    "message": "Дозволи странице отворене преко Омиљено"
  },
  "AllowClipboard": {
    "message": "Дозволи rich text копирање и налепљивање из ектерног клипборда"
  },
  "AllowLocalLinks": {
    "message": "Дозволи локалне везе"
  },
  "AllowPage": {
    "message": "Allow all this page"
  },
  "AllowPage.accesskey": {
    "message": "A"
  },
  "AllowPing": {
    "message": "Дозволи <A PING...>"
  },
  "AllowViaBookmarks": {
    "message": "Дозволи странице отворене преко Омиљено"
  },
  "AlwaysBlockUntrustedContent": {
    "message": "Block every object coming from a site marked as untrusted"
  },
  "Appearance": {
    "message": "Изглед"
  },
  "AutoAllowTopLevel": {
    "message": "Привремено дозволи top-level стране као подразумевано"
  },
  "AutoReload": {
    "message": "Аутоматски поново учитај стране које су обухваћене променом дозвола"
  },
  "BaseDom": {
    "message": "Базни домени другог нивоа (noscript.net)"
  },
  "BlockedObjects": {
    "message": "Blocked Objects"
  },
  "BookmarkSync": {
    "message": "Направите резервну копију подешавања БезСкрити у забелешку ради лаког усклађивања"
  },
  "ClearClickDescription": {
    "message": "NoScript intercepted a mouse or keyboard interaction with a partially hidden element. Click on the image above to cycle beetween the obstructed and the clear version."
  },
  "ClearClickHeader": {
    "message": "Potential Clickjacking / UI Redressing Attempt!"
  },
  "ClearClickOpt": {
    "message": "ClearClick protection on pages…"
  },
  "ClearClickReport": {
    "message": "Пријави"
  },
  "ClearClickReport.accesskey": {
    "message": "П"
  },
  "ClearClickReportId": {
    "message": "ИД пријаве:"
  },
  "ClearClickTitle": {
    "message": "ClearClick Warning"
  },
  "Close": {
    "message": "Затвори"
  },
  "CollapseBlockedObjects": {
    "message": "Collapse blocked objects"
  },
  "ConfirmUnblock": {
    "message": "Тражи потврду пре привременог скидања блокаде са објекта"
  },
  "ContentBlocker": {
    "message": "Apply these restrictions to trusted sites too"
  },
  "CtxMenu": {
    "message": "Контекстни мени"
  },
  "DefaultPolicies": {
    "message": "Подразумеване полисе"
  },
  "Description": {
    "message": "Додатна заштита за ваш Firefox: NoScript дозвољава JavaScript, Flash (и остале додатке) само доменима којима се верује по вашем избору (нпр. Ваша е-banking веб страна). Овај превентивни приступ блокирања базиран на белој листи спречава искоришћавање безбедносних пропуста (познатих и чак и непознатих!) без икаквог губитка функционалности... Експерти ће се сложити: Firefox је заиста безбеднији са NoScript-ом :-)"
  },
  "Embeddings": {
    "message": "Уграђени објекти"
  },
  "Exceptions": {
    "message": "Exceptions..."
  },
  "Export": {
    "message": "Извоз"
  },
  "Export.accesskey": {
    "message": "И"
  },
  "FixLinks": {
    "message": "Покушај да поправиш JavaScript везе"
  },
  "Forbid": {
    "message": "Забрани"
  },
  "Forbid.accesskey": {
    "message": "З"
  },
  "ForbidBookmarklets": {
    "message": "Забрани bookmarklet-е"
  },
  "ForbidFlash": {
    "message": "Забрани Adobe® Flash®"
  },
  "ForbidFonts": {
    "message": "Забрани @font-face"
  },
  "ForbidFrames": {
    "message": "Забрани <FRAME>"
  },
  "ForbidIFrames": {
    "message": "Забрани <IFRAME>"
  },
  "ForbidJava": {
    "message": "Забрани Java™"
  },
  "ForbidMedia": {
    "message": "Забрани <AUDIO> / <VIDEO>"
  },
  "ForbidMetaRefresh": {
    "message": "Забрани META редирекције унутар <NOSCRIPT> елемената"
  },
  "ForbidMetaRefresh.accesskey": {
    "message": "М"
  },
  "ForbidPing": {
    "message": "Забрани <A PING...>"
  },
  "ForbidPlugins": {
    "message": "Забрани остале додатке"
  },
  "ForbidSilverlight": {
    "message": "Забрани Microsoft® Silverlight™"
  },
  "ForbidWebGL": {
    "message": "Забрани WebGL"
  },
  "ForbidXSLT": {
    "message": "Забрани XSLT"
  },
  "FrameOptErr.desc": {
    "message": "Ради заштите ваше сигурности, објављивач ове странице не дозвољава приказивање у оквиру."
  },
  "FrameOptErr.link": {
    "message": "Кликните овде да бисте отворили овај садржај у новом прозору"
  },
  "FrameOptErr.title": {
    "message": "Овај садржај не може да буде приказан у оквиру"
  },
  "FullAddr": {
    "message": "Пуне адресе (http://www.noscript.net)"
  },
  "FullDom": {
    "message": "Пуни домени (www.noscript.net)"
  },
  "General": {
    "message": "Опште"
  },
  "GloballyEnabled": {
    "message": "Скриптови су глобално дозвољени (опасно)"
  },
  "Https": {
    "message": "HTTPS"
  },
  "Https.always": {
    "message": "Always"
  },
  "Https.behavior": {
    "message": "Behavior"
  },
  "Https.cookies": {
    "message": "Cookies"
  },
  "Https.description": {
    "message": "Forbid active web content unless it comes from a secure (HTTPS) connection:"
  },
  "Https.never": {
    "message": "Never"
  },
  "Https.proxy": {
    "message": "When using a proxy (recommended with Tor)"
  },
  "HttpsFaq": {
    "message": "HTTPS FAQ…"
  },
  "HttpsFaq.accesskey": {
    "message": "Q"
  },
  "HttpsForced": {
    "message": "Force the following sites to use secure (HTTPS) connections:"
  },
  "HttpsForcedExceptions": {
    "message": "Never force secure (HTTPS) connections for the following sites:"
  },
  "Import": {
    "message": "Увоз"
  },
  "Import.accesskey": {
    "message": "У"
  },
  "KeepLocked": {
    "message": "Keep this element locked (recommended)"
  },
  "MatchSample": {
    "message": "Узорак шаблона за поклапање:"
  },
  "Next": {
    "message": "Даље"
  },
  "NoUntrustedPlaceholder": {
    "message": "No placeholder for objects coming from sites marked as untrusted"
  },
  "Notifications": {
    "message": "Обавештења"
  },
  "Notify": {
    "message": "Прикажи поруку о блокираним скриптовима"
  },
  "Notify.bottom": {
    "message": "Постави поруку на дно"
  },
  "NselForce": {
    "message": "Прикажи <NOSCRIPT> који се налази иза блокираног <SCRIPT>"
  },
  "NselNever": {
    "message": "Сакриј <NOSCRIPT> елементе"
  },
  "OptBlockCssScanners": {
    "message": "Блокирај CSS-базиране скенере"
  },
  "OptFilterXGet": {
    "message": "Очисти сумњиве cross-site захтеве"
  },
  "OptFilterXPost": {
    "message": "Претвори cross-site POST захтеве у GET захтеве без података"
  },
  "Options": {
    "message": "Подешавања..."
  },
  "Options.accesskey": {
    "message": "П"
  },
  "OptionsLong": {
    "message": "NoScript подешавања"
  },
  "OptionsWidth": {
    "message": "40em"
  },
  "Permissions": {
    "message": "Дозволе"
  },
  "PermissionsText": {
    "message": "Можете да наведете којим веб странама је дозвољено да извршавају скриптове. Унесите адресу или домен (нпр. \"http://www.site.com\" или \"site.com\") стране којој желите да дате дозволу и онда кликните Дозволи."
  },
  "Plugins": {
    "message": "Plugins"
  },
  "Policies": {
    "message": "Полисе"
  },
  "Prev": {
    "message": "Претходно"
  },
  "RecentBlocked": {
    "message": "Недавно блокиране странице"
  },
  "Refresh": {
    "message": "Освежи"
  },
  "ReloadWarn": {
    "message": "Ова подешавања ће бити примењена на нове или (ручно) поново учитане стране"
  },
  "RemoveSelected": {
    "message": "Уклони изабране стране"
  },
  "Reset": {
    "message": "Врати подразумевано"
  },
  "Reset.accesskey": {
    "message": "Р"
  },
  "ResetDef": {
    "message": "Ресетуј на подразумевано"
  },
  "ResetDef.accesskey": {
    "message": "т"
  },
  "RevokeTemp": {
    "message": "Revoke Temporary Permissions"
  },
  "RevokeTemp.accesskey": {
    "message": "T"
  },
  "SecureCookies": {
    "message": "Enable Automatic Secure Cookies Management"
  },
  "SecureCookiesExceptions": {
    "message": "Ignore unsafe cookies set over HTTPS by the following sites:"
  },
  "SecureCookiesForced": {
    "message": "Force encryption for all the cookies set over HTTPS by the following sites:"
  },
  "SecurityManager": {
    "message": "Менаџер сигурности"
  },
  "Show": {
    "message": "Прикажи..."
  },
  "ShowConsole": {
    "message": "Прикажи конзолу..."
  },
  "ShowConsole.accesskey": {
    "message": "р"
  },
  "ShowPlaceholder": {
    "message": "Прикажи икону места где стоји објекат"
  },
  "ShowReleaseNotes": {
    "message": "Након дограђивања прикажи белешку о издању"
  },
  "SiteManager": {
    "message": "Менаџер страна"
  },
  "SitePolicies": {
    "message": "Полисе специфичне за стране"
  },
  "StatusIcon": {
    "message": "Икона на статусној линији"
  },
  "StatusLabel": {
    "message": "Лабела на статусној линији"
  },
  "TempAllowPage": {
    "message": "Temporarily allow all this page"
  },
  "TempAllowPage.accesskey": {
    "message": "P"
  },
  "TempCmd": {
    "message": "Привремено дозволи [...]"
  },
  "TempToPerm": {
    "message": "Make page permissions permanent"
  },
  "TempToPerm.accesskey": {
    "message": "m"
  },
  "ToolbarToggle": {
    "message": "Леви клик на NoScript дугме у линији алата укључује/искључује дозволе top-level стране"
  },
  "TruncateTitle": {
    "message": "Одсеци наслове докумената"
  },
  "Trust": {
    "message": "Означи као проверено"
  },
  "Trust.accesskey": {
    "message": "в"
  },
  "Trusted": {
    "message": "Којима се верује"
  },
  "TrustedPagesAdj": {
    "message": "trusted"
  },
  "Uninstall": {
    "message": "Деинсталирај"
  },
  "Unknown": {
    "message": "Непознато"
  },
  "UnsafeReload": {
    "message": "Небезбедно поновно учитавање"
  },
  "UnsafeReload.accesskey": {
    "message": "б"
  },
  "Untrust": {
    "message": "Означи као непроверено"
  },
  "Untrust.accesskey": {
    "message": "н"
  },
  "Untrusted": {
    "message": "Којима се не верује"
  },
  "UntrustedPagesAdj": {
    "message": "untrusted"
  },
  "WebAddress": {
    "message": "Адреса веб стране:"
  },
  "Whitelist": {
    "message": "Бела листа"
  },
  "Xss": {
    "message": "XSS"
  },
  "Xss.accesskey": {
    "message": "X"
  },
  "XssExceptions": {
    "message": "Изузеци Anti-XSS заштите"
  },
  "XssExceptions.description": {
    "message": "Одредишта која задовољавају ове регуларне изразе НЕЋЕ бити заштићена од XSS"
  },
  "XssFaq": {
    "message": "XSS ЧПП..."
  },
  "XssFaq.accesskey": {
    "message": "Ч"
  },
  "about": {
    "message": "О $1"
  },
  "allowFrom": {
    "message": "Дозволи све са $1"
  },
  "allowGlobal": {
    "message": "Дозволи скрипте глобално (опасно)"
  },
  "allowLocal": {
    "message": "Дозволи $1"
  },
  "allowTemp": {
    "message": "Привремено дозволи $1"
  },
  "allowTempFrom": {
    "message": "Привремено дозволи све са $1"
  },
  "allowed.glb": {
    "message": "Опасност! Скрипте су глобално дозвољени"
  },
  "allowed.no": {
    "message": "Скрипте су тренутно забрањени"
  },
  "allowed.prt": {
    "message": "Скрипте су делимично дозвољени"
  },
  "allowed.yes": {
    "message": "Скрипте су тренутно дозвољени"
  },
  "alwaysAsk": {
    "message": "Увек тражи потврду"
  },
  "audio.samples": {
    "message": "Звучни узорци"
  },
  "bookmarkSync.confirm": {
    "message": "NoScript је пронашао забелешку са подешавањима наочиглед сачувану у\n$1.\nДа ли желите да препишете месна NoScript подешавања са садржајем ове забелешке?"
  },
  "bookmarkSync.message": {
    "message": "Ова забелешка НИЈЕ предвиђена за отварање, већ за усклађивање коришћењем услуга као што су Weave или XMarks додатак."
  },
  "bookmarkSync.title": {
    "message": "Забелешка за подешавање БезСкрипте"
  },
  "changelog": {
    "message": "Дневник промена"
  },
  "changelog.tip": {
    "message": "Прикажи дневник промена"
  },
  "confirm": {
    "message": "Да ли сте сигурни?"
  },
  "distrust": {
    "message": "Означи $1 као непроверено"
  },
  "extensionContributors": {
    "message": "Радили на пројекту:"
  },
  "extensionContributors.tip": {
    "message": "Људи којима би требало да захвалите за ово проширење"
  },
  "extensionCreator.tip": {
    "message": "Посетите веб страну аутора"
  },
  "extensionCreatorLabel": {
    "message": "Аутор:"
  },
  "extensionHomepage.tip": {
    "message": "Посетите веб страну проширења"
  },
  "extensions.{73a6fe31-595d-460b-a920-fcc0f8843232}.description": {
    "message": "Додатна заштита за Ваш Firefox: NoScript дозвољава JavaScript, Java (и остале додатке) само доменима којима се верује по Вашем избору (нпр. Ваша е-banking веб страна). Овај превентивни приступ блокирања базиран на белој листи спречава искоришћавање безбедносних пропуста (познатих и чак и непознатих!) без икаквог губитка функционалности... Експерти ће се сложити: Firefox је заиста безбеднији са NoScript-ом :-)"
  },
  "forbidGlobal": {
    "message": "Забрани скрипте глобално (препоручљиво)"
  },
  "forbidLocal": {
    "message": "Забрани $1"
  },
  "global.warning.text": {
    "message": "Скрипте ће глобално бити дозвољене (за све стране).\n Ово је потенцијално опасна радња.\nДа ли заиста желите да наставите?"
  },
  "global.warning.title": {
    "message": "Упозорење!"
  },
  "informaction.tip": {
    "message": "Посетите InformAction веб страну"
  },
  "license": {
    "message": "Лиценца"
  },
  "license.tip": {
    "message": "Прочитајте лиценцу за крајњег корисника"
  },
  "logo.tip": {
    "message": "Посетите веб страну проширења"
  },
  "metaRefresh.notify": {
    "message": "БезСкрипти је блокирао <META> преусмеравање унутар <NOSCRIPT> елемента: $1 за $2 секунди."
  },
  "metaRefresh.notify.follow": {
    "message": "Следи преусмеравање"
  },
  "metaRefresh.notify.follow.accessKey": {
    "message": "л"
  },
  "notify.options": {
    "message": "Опције"
  },
  "notify.options.accessKey": {
    "message": "O"
  },
  "notifyHide": {
    "message": "Склони након $1 секунди"
  },
  "reset.title": {
    "message": "Врати почетна подешавања БезСкрипти"
  },
  "reset.warning": {
    "message": "СВА NoScript подешавања и дозволе за веб стране ће тренутно бити враћени на подразумеване вредности.\nОву акцију не можете да поништите.\nЖелите ли да наставите?"
  },
  "sponsor.tip": {
    "message": "Посетите веб страну спонзора"
  },
  "trust": {
    "message": "Веруј $1"
  },
  "unsafeReload.warning": {
    "message": "НЕБЕЗБЕДНО поновно учитавање сумњивог \n\n$1 [$2]\n\nОД [$3]\n\nNoScript НЕЋЕ заштитити овај захтев!\n"
  },
  "untrustedOrigin": {
    "message": "Порекло непроверено"
  },
  "version": {
    "message": "Верзија $1"
  },
  "xss.notify.generic": {
    "message": "БезСкрипти је филтритао потенцијални покушај cross-site скриптинга (XSS) од  стране $1. Технички детаљи су забележени у конзолу."
  },
  "xss.notify.showConsole": {
    "message": "Прикажи конзолу..."
  },
  "xss.notify.showConsole.accessKey": {
    "message": "к"
  },
  "xss.reason.filterXGet": {
    "message": "Очишћен сумњив захтев. Оригинални URL [$1] затражен од стране [$2]. Очишћен URL: [$3].)"
  },
  "xss.reason.filterXGetRef": {
    "message": "Очишћен пошиљалац сумњивог захтева. URL [$1] је захтеван од стране [$2]. Очишћен пошиљалац: [$3].)"
  },
  "xss.reason.filterXPost": {
    "message": "Очишћен сумњиви upload ка [$1] од [$2]: трансформисано у download-only GET захтев."
  }
}