{
  "ABE": {
    "message": "ABE"
  },
  "ABE.accesskey": {
    "message": "A"
  },
  "ABE.chooseEditor": {
    "message": "Prošu wubjerće teksotwy editor za sadźby prawidłow ABE"
  },
  "ABE.disable.accesskey": {
    "message": "Z"
  },
  "ABE.disable.label": {
    "message": "Znjemóžnić"
  },
  "ABE.edit.accesskey": {
    "message": "W"
  },
  "ABE.edit.label": {
    "message": "Wobdźěłać…"
  },
  "ABE.enable.accesskey": {
    "message": "m"
  },
  "ABE.enable.label": {
    "message": "Zmóžnić"
  },
  "ABE.enabled.label": {
    "message": "ABE (Application Boundaries Enforcer) zmóžnić"
  },
  "ABE.notify": {
    "message": "Naprašowanje $1 filtrowane přez ABE: <$2> $3"
  },
  "ABE.refresh.accesskey": {
    "message": "A"
  },
  "ABE.refresh.label": {
    "message": "Aktualizować"
  },
  "ABE.rulesets.label": {
    "message": "Sadźby prawidłow:"
  },
  "ABE.siteEnabled.label": {
    "message": "Sydłam dowolić, zo bychu swójske sadźby prawidłow wužiwali"
  },
  "ABE.syntaxError": {
    "message": "Syntaksowy zmylk w sadźbje prawidłow ABE!"
  },
  "ABE.wanIpAsLocal": {
    "message": "WAN IP ($1) ∈ LOKALNY"
  },
  "Add": {
    "message": "Přidać"
  },
  "Add.accesskey": {
    "message": "P"
  },
  "AdditionalPermissions": {
    "message": "Přidatne prawa za dowěry hódne sydła"
  },
  "AdditionalRestrictions": {
    "message": "Přidatne wobmjezowanja za dowěry njehódne sydła"
  },
  "Advanced": {
    "message": "Rozšěrjene"
  },
  "Allow": {
    "message": "Dowolić"
  },
  "Allow.accesskey": {
    "message": "w"
  },
  "AllowBookmarks": {
    "message": "Sydła wočinjene přez zapołožki dowolić"
  },
  "AllowClipboard": {
    "message": "Zasunjenje RTF z eksterneho mjezyskłada dowolić"
  },
  "AllowLocalLinks": {
    "message": "Lokalne wotkazy dowolić"
  },
  "AllowPage": {
    "message": "Wšitko na tutej stronje dowolić"
  },
  "AllowPage.accesskey": {
    "message": "W"
  },
  "AllowPing": {
    "message": "<A PING...> dowolić"
  },
  "AllowViaBookmarks": {
    "message": "Sydła wočinjene přez zapołožki dowolić"
  },
  "AlwaysBlockUntrustedContent": {
    "message": "Kóždy objekt blokować, kotryž ze sydła pochadźa, kotrež je jako dowěry njehódne markěrowane"
  },
  "Appearance": {
    "message": "Napohlad"
  },
  "AutoAllowTopLevel": {
    "message": "Po standardźe sydła najwyšeje runiny nachwilu dowolić"
  },
  "AutoReload": {
    "message": "Potrjechene strony awtomatisce znowa začitać, hdyž so prawa měnjeja"
  },
  "BaseDom": {
    "message": "Domeny druheje runiny (noscript.net)"
  },
  "BlockedObjects": {
    "message": "Zablokowane objekty"
  },
  "BookmarkSync": {
    "message": "Konfiguraciju NoScript w zapołožce za lochku synchronizaciju zawěsćić"
  },
  "ClearClickDescription": {
    "message": "NoScript je interakciju myše abo tastatury z dźělnje schowanym elementom wotpopadnył. Klikńće na slědowacy wobraz, zo by mjez zablokowanej a widźomnej wersiju přeměnił."
  },
  "ClearClickHeader": {
    "message": "Potencielny pospyt Clickjacking / přeadresowanja!"
  },
  "ClearClickOpt": {
    "message": "Škit přez ClearClick na stronach…"
  },
  "ClearClickReport": {
    "message": "Rozprawa"
  },
  "ClearClickReport.accesskey": {
    "message": "R"
  },
  "ClearClickReportId": {
    "message": "ID rozprawy:"
  },
  "ClearClickTitle": {
    "message": "Warnowanje přez ClearClick"
  },
  "Close": {
    "message": "Začinić"
  },
  "CollapseBlockedObjects": {
    "message": "Zablokowane objekty fałdować"
  },
  "ConfirmUnblock": {
    "message": "Wo wobkrućenje prosyć, prjedy hač so objekt nachwilu dowoli"
  },
  "ContentBlocker": {
    "message": "Tute wobmjezowanja tež na sydła w běłej lisćinje nałožić"
  },
  "CtxMenu": {
    "message": "Kontekstowy meni"
  },
  "DefaultPolicies": {
    "message": "Standardne prawidła"
  },
  "Description": {
    "message": "Wosebity škit za waš Firefox: NoScript dowola JavaScript, Flash (a druhe tykače) jenož za dowěry hódne domeny wašeje wólby (na př. waše websydło za domjacne bankowanje). Tuta běła lisćina, kotraž na prewentiwnym přistupje k blokowanju bazěruje, zadźěwa znjewužiwanju wěstotnych dźěrow (znatych a samo njeznatych!) bjez zhubjenja funkcionalnosće… Eksperća přizwola: Firefox je woprawdźe wěsćiši z NoScript :-)"
  },
  "Donate": {
    "message": "Darić"
  },
  "Donate.accesskey": {
    "message": "a"
  },
  "Embeddings": {
    "message": "Zasadźenja"
  },
  "Exceptions": {
    "message": "Wuwzaća…"
  },
  "Export": {
    "message": "Eksportować"
  },
  "Export.accesskey": {
    "message": "E"
  },
  "FixLinks": {
    "message": "Z JavaScriptom wutworjene wotkazy porjedźić spytać"
  },
  "Forbid": {
    "message": "Zakazać"
  },
  "Forbid.accesskey": {
    "message": "Z"
  },
  "ForbidBookmarklets": {
    "message": "Bookmarklety zakazać"
  },
  "ForbidFlash": {
    "message": "Adobe® Flash® zakazać"
  },
  "ForbidFonts": {
    "message": "@font-face zakazać"
  },
  "ForbidFrames": {
    "message": "<FRAME> zakazać"
  },
  "ForbidIFrames": {
    "message": "<IFRAME> zakazać"
  },
  "ForbidJava": {
    "message": "Java™ zakazać"
  },
  "ForbidMedia": {
    "message": "<AUDIO>/<VIDEO> zakazać"
  },
  "ForbidMetaRefresh": {
    "message": "Dalesposrědkowanja META znutřka elementach <NOSCRIPT> zakazać"
  },
  "ForbidMetaRefresh.accesskey": {
    "message": "T"
  },
  "ForbidPing": {
    "message": "<A PING...> zakazać"
  },
  "ForbidPlugins": {
    "message": "Druhe tykače zakazać"
  },
  "ForbidSilverlight": {
    "message": "Microsoft® Silverlight™ zakazać"
  },
  "ForbidWebGL": {
    "message": "WebGL zakazać"
  },
  "ForbidXSLT": {
    "message": "XSLT zakazać"
  },
  "FrameOptErr.desc": {
    "message": "Zo by swoju wěstotu zarućił, wudawaćel tutoho wobsaha njedowoluje, zo by so tutón wobsah we wobłuku zwobraznił."
  },
  "FrameOptErr.link": {
    "message": "Klikńće tu, zo byšće tutón wobsah w nowym woknje wočinił"
  },
  "FrameOptErr.title": {
    "message": "Tutón wobsah njeda so we wobłuku zwobraznić"
  },
  "FullAddr": {
    "message": "Dospołne adresy (http://www.noscript.net)"
  },
  "FullDom": {
    "message": "Dospołne domeny (http://www.noscript.net)"
  },
  "General": {
    "message": "Powšitkowny"
  },
  "GloballyEnabled": {
    "message": "Skripty globalnje dowolene (riskantny)"
  },
  "Https": {
    "message": "HTTPS"
  },
  "Https.always": {
    "message": "Přeco"
  },
  "Https.behavior": {
    "message": "Zadźerženje"
  },
  "Https.cookies": {
    "message": "Placki"
  },
  "Https.description": {
    "message": "Aktiwny webwobsah zakazać, chibazo pochadźa z wěsteho zwiska (HTTPS):"
  },
  "Https.never": {
    "message": "Ženje"
  },
  "Https.proxy": {
    "message": "Při wužiwanju proksy (z Torom doporučeny)"
  },
  "HttpsFaq": {
    "message": "HTTPS huste prašenja…"
  },
  "HttpsFaq.accesskey": {
    "message": "H"
  },
  "HttpsForced": {
    "message": "Slědowace sydła nućić wěste zwiski (HTTPS) wužiwać:"
  },
  "HttpsForcedExceptions": {
    "message": "Slědowace sydła ženje njenućić wěste zwiski (HTTPS) wužiwać:"
  },
  "Import": {
    "message": "Importować"
  },
  "Import.accesskey": {
    "message": "I"
  },
  "KeepLocked": {
    "message": "Tutón element zawrjeny wostajić (doporučeny)"
  },
  "MatchSample": {
    "message": "Přikład za wotpowědnik mustra:"
  },
  "Next": {
    "message": "Přichodny"
  },
  "NoUntrustedPlaceholder": {
    "message": "Žadyn zastupniski wobrazk za objekty, kotrež ze sydłow pochadźeja, kotrež su jako dowěry njehódne markěrowane"
  },
  "Notifications": {
    "message": "Zdźělenki"
  },
  "Notify": {
    "message": "Zdźělenku wo zablokowanych skriptach pokazać"
  },
  "Notify.bottom": {
    "message": "Zdźělenku deleka zaměstnić"
  },
  "NotifyMeta": {
    "message": "Zdźělenku wo zablokowanych META-dalesposrědkowanjach pokazać"
  },
  "NotifyMeta.accesskey": {
    "message": "T"
  },
  "NselForce": {
    "message": "Element <NOSCRIPT> pokazać, kotryž zablokowanemu <SCRIPT> slěduje"
  },
  "NselNever": {
    "message": "Elementy <NOSCRIPT> schować"
  },
  "OptBlockCssScanners": {
    "message": "Skanery na zakładźe CSS blokować"
  },
  "OptFilterXGet": {
    "message": "Podhladne XSS-požadanja porjedźić"
  },
  "OptFilterXPost": {
    "message": "XSS-požadanja POST do požadanjow GET wobsahowacych mjenje datow přetworić"
  },
  "Options": {
    "message": "Opcije…"
  },
  "Options.accesskey": {
    "message": "O"
  },
  "OptionsLong": {
    "message": "Opcije NoScript"
  },
  "OptionsWidth": {
    "message": "60em"
  },
  "Permissions": {
    "message": "Prawa"
  },
  "PermissionsText": {
    "message": "Móžeće podać, kotre websydła smědźa skripty wuwjesć. Zapisajće adresu abo domenu  (na př. \"http://www.site.com\" abo \"site.com\") websydła, kotremuž chceće to dowolić a klikńće potom na \"Dowolić\"."
  },
  "Plugins": {
    "message": "Tykače"
  },
  "Policies": {
    "message": "Prawidła"
  },
  "Preset": {
    "message": "Wěstotny schodźenk"
  },
  "Preset.high": {
    "message": "Twjerdźizna (dospołnje zawrjeny)"
  },
  "Preset.low": {
    "message": "Słaba wěstota (Čorna lisćina + webwěstota)"
  },
  "Preset.medium": {
    "message": "Klasiska wěstota (Běła lisćina + webwěstota)"
  },
  "Preset.off": {
    "message": "Wupinjeny (sy ty seriozny?!)"
  },
  "Prev": {
    "message": "Předchadny"
  },
  "RecentBlocked": {
    "message": "Njedawno zablokowane sydła"
  },
  "Refresh": {
    "message": "Aktualizować"
  },
  "ReloadWarn": {
    "message": "Tute opcije budu so hakle pola nowych abo znowa začitanych stronow wuskutkować"
  },
  "RemoveSelected": {
    "message": "Wubrane sydła wotstronić"
  },
  "Reset": {
    "message": "Wróćo stajić"
  },
  "Reset.accesskey": {
    "message": "s"
  },
  "ResetDef": {
    "message": "Na standard wróćo stajić"
  },
  "ResetDef.accesskey": {
    "message": "t"
  },
  "RevokeTemp": {
    "message": "Nachwilne prawa wotwołać"
  },
  "RevokeTemp.accesskey": {
    "message": "N"
  },
  "SecureCookies": {
    "message": "Awtomatiske wěste zarjadowanje plackow zmóžnić"
  },
  "SecureCookiesExceptions": {
    "message": "Njewěste placki, kotrež buchu přez HTTPS za slědowace sydła nastajene, ignorować:"
  },
  "SecureCookiesForced": {
    "message": "Zaklučowanje za wšě placki wunućić, kotrež su so přez HTTPS za slědowace sydła nastajili:"
  },
  "SecurityManager": {
    "message": "Wěstotny zrjadowak"
  },
  "Show": {
    "message": "Pokazać…"
  },
  "ShowConsole": {
    "message": "Konsolu pokazać…"
  },
  "ShowConsole.accesskey": {
    "message": "K"
  },
  "ShowPlaceholder": {
    "message": "Zastupniski wobrazk pokazać"
  },
  "ShowReleaseNotes": {
    "message": "Wersije informacije  při aktualizacijach zwobraznić"
  },
  "SiteManager": {
    "message": "Zrjadowak sydłow"
  },
  "SitePolicies": {
    "message": "Prawidła za specifiske sydła"
  },
  "StatusIcon": {
    "message": "Wobrazk w statusowej lajsće"
  },
  "StatusLabel": {
    "message": "Popis w statusowej lajsće"
  },
  "TempAllowPage": {
    "message": "Tutu cyłu stronu nachwilu dowolić"
  },
  "TempAllowPage.accesskey": {
    "message": "T"
  },
  "TempCmd": {
    "message": "[…]  nachwilu dowolić"
  },
  "TempToPerm": {
    "message": "Prawa strony na přeco připokazać"
  },
  "TempToPerm.accesskey": {
    "message": "P"
  },
  "ToolbarToggle": {
    "message": "Kliknjenje z lěwej tastu na tłóčatko NoScript w gratowej lajsće přepina prawa za aktualne sydło najwyšeje runiny"
  },
  "TruncateTitle": {
    "message": "Titule dokumentow wobrězać"
  },
  "Trust": {
    "message": "Jako dowěry hódny markěrować"
  },
  "Trust.accesskey": {
    "message": "J"
  },
  "Trusted": {
    "message": "Dowěry hódne"
  },
  "TrustedPagesAdj": {
    "message": "dowěry hódny"
  },
  "Uninstall": {
    "message": "Wotinstalować"
  },
  "Unknown": {
    "message": "Njeznaty"
  },
  "UnsafeReload": {
    "message": "Njewěste znowazačitanje"
  },
  "UnsafeReload.accesskey": {
    "message": "N"
  },
  "Untrust": {
    "message": "Jako dowěry njehódny markěrować"
  },
  "Untrust.accesskey": {
    "message": "N"
  },
  "Untrusted": {
    "message": "Dowěry njehódne"
  },
  "UntrustedPagesAdj": {
    "message": "dowěry njehódny"
  },
  "WebAddress": {
    "message": "Adresa websydła:"
  },
  "Whitelist": {
    "message": "Běła lisćina"
  },
  "Xss": {
    "message": "XSS"
  },
  "Xss.accesskey": {
    "message": "X"
  },
  "XssExceptions": {
    "message": "Wuwzaća škita přećiwo XSS"
  },
  "XssExceptions.description": {
    "message": "Cile, kotrež tutym regularnym wurazam wotpowěduja, NJEbudu so přećiwo XSS škitać."
  },
  "XssFaq": {
    "message": "Huste prašenja XSS…"
  },
  "XssFaq.accesskey": {
    "message": "H"
  },
  "about": {
    "message": "Wo $1"
  },
  "allowFrom": {
    "message": "Wšě z $1 dowolić"
  },
  "allowGlobal": {
    "message": "Skripty globalnje dowolić (riskantny)"
  },
  "allowLocal": {
    "message": "$1 dowolić"
  },
  "allowTemp": {
    "message": "$1 nachwilu dowolić"
  },
  "allowTempFrom": {
    "message": "Wšě z $1 nachwilu dowolić"
  },
  "allowed.glb": {
    "message": "Strach! Skripty su globalnje dowolene"
  },
  "allowed.no": {
    "message": "Skripty tuchwilu zakazane"
  },
  "allowed.prt": {
    "message": "Skripty zdźěla dowolene"
  },
  "allowed.yes": {
    "message": "Skripty tuchwilu dowolene"
  },
  "alwaysAsk": {
    "message": "Přeco wo wobkrućenje prosyć"
  },
  "audio.samples": {
    "message": "Awdiopřikłady"
  },
  "bookmarkSync.confirm": {
    "message": "NoScript je konfiguracisku zapołožku namakał, kotraž je najskerje na\n$1 składowana.\nChceće woprawdźe swoju lokalnu konfiguraciju NoScript z wobsahom tuteje zapołožki přepisać?"
  },
  "bookmarkSync.message": {
    "message": "Tuta zapołožka NJEJE za to mysleny so wočinić, ale so z pomocu słužby kaž Weave abo rozšěrjenja XMarks synchronizować."
  },
  "bookmarkSync.title": {
    "message": "Konfiguraciska zapołožka NoScript"
  },
  "changelog": {
    "message": "Protokol změnow"
  },
  "changelog.tip": {
    "message": "Protokol změnow pokazać"
  },
  "confirm": {
    "message": "Sy sej wěsty?"
  },
  "disable": {
    "message": "$1 znjemóžnić"
  },
  "disable.accessKey": {
    "message": "z"
  },
  "distrust": {
    "message": "$1 jako dowěry njehódny markěrować"
  },
  "extensionContributors": {
    "message": "Sobuskutkowacy:"
  },
  "extensionContributors.tip": {
    "message": "Ludźo, kotrymž wy měł so za tute rozšěrjenje dźakować"
  },
  "extensionCreator.tip": {
    "message": "Startowu stronu awtora wopytać"
  },
  "extensionCreatorLabel": {
    "message": "Awtor:"
  },
  "extensionHomepage.tip": {
    "message": "Startowu stronu rozšěrjenja wopytać"
  },
  "extensions.{73a6fe31-595d-460b-a920-fcc0f8843232}.description": {
    "message": "Wosebity škit za waš Firefox: NoScript dowola JavaScript, Java (a druhe tykače) jenož za dowěrliwe domeny wašeje wólby (na př. waše websydło za domjacne bankowanje). Tuta běła lisćina, kotraž na prewentiwnym přistupje k blokowanje bazěruje, zadźěwa znjewužiwanju wěstotnych dźěrow (znatych a samo njeznatych!) bjez zhubjenja funkcionalnosće… Eksperća přizwola: Firefox je woprawdźe wěsćiši z NoScript :-)"
  },
  "forbidGlobal": {
    "message": "Skripty globalnje zakazać (doporučeny)"
  },
  "forbidLocal": {
    "message": "$1 zakazać"
  },
  "global.warning.text": {
    "message": "Skripty budu so (za kóžde sydło) generelnje dowoleć.\n To je potencielnje strašna akcija.\nChceće woprawdźe pokročować?"
  },
  "global.warning.title": {
    "message": "Warnowanje!"
  },
  "informaction.tip": {
    "message": "Startowu stronu InformAction wopytać"
  },
  "license": {
    "message": "Licenca"
  },
  "license.tip": {
    "message": "Licencu za kónčnych wužiwarjow čitać"
  },
  "logo.tip": {
    "message": "Startowu stronu rozšěrjenja wopytać"
  },
  "metaRefresh.notify": {
    "message": "NoScript je dalesposrědkowanje <META> znutřka elementa <NOSCRIPT> blokował: $1 za $2 sekundow."
  },
  "metaRefresh.notify.follow": {
    "message": "Dalesposrědkowanju slědować"
  },
  "metaRefresh.notify.follow.accessKey": {
    "message": "D"
  },
  "notify.options": {
    "message": "Opcije"
  },
  "notify.options.accessKey": {
    "message": "O"
  },
  "notifyHide": {
    "message": "Po $1 sekundach schować"
  },
  "removal.message": {
    "message": "Hdyž NoScript znjemóžnjeće abo wotinstalujeće, wzdaće WŠEHO škita, kotryž NoScript k dispoziciji steji.\n\nJeli maće jenož syte, ze skriptowymi dowolnosćemi sydło po sydle wobchadźeće, je wěsćiša móžnosć.\n\nNoScript móže blokowanje skriptow skónčić, nimo tych, kotrež  woznamjenjeće jako dowěry njehódne, mjeztym zo hišće z najbóle rozšěrjenymi wěstotnymi přećiwnymi naprawami přećiwo XSS, Clickjacking, CSRF a drugim webwohroženjam.\n\nChceće woprawdźe WŠÓN škit přez NoScript wotstronić?\n"
  },
  "removal.no": {
    "message": "Ně, jenož blokowanje skriptow skónčić"
  },
  "removal.title": {
    "message": "Warnowanje znižowanja wěstoty"
  },
  "removal.yes": {
    "message": "Haj, WŠÓN škit wotstronić"
  },
  "reset.title": {
    "message": "NoScript wróćo stajeny"
  },
  "reset.warning": {
    "message": "WŠĚ nastajenja NoScripta a sydłowe dowolenja budu so hnydom na swoje standardne hódnoty wróćo stajeć.\nTuta akcija njeda so cofnyć.\nChceće pokročować?"
  },
  "siteInfo.confirm": {
    "message": "Chceće runje wo informacije wo sydle \\\"$1\\\" prosyć\nsćelo naprašowanje do $2.\nChceće pokročować?"
  },
  "siteInfo.tooltip": {
    "message": "Srjedźne kliknjenje abo Umsch+kliknjenje za informacije wo sydle…"
  },
  "sponsor.tip": {
    "message": "Startowu stronu sponsora wopytać"
  },
  "trust": {
    "message": "$1 dowěrić"
  },
  "unsafeReload.warning": {
    "message": "NJEWĚSTA aktualizacija podhladneho\n\n$1 [$2]\n\nZ [$3]\n\nNoScript NJEbudźe tute požadanje škitać!\n"
  },
  "untrustedOrigin": {
    "message": "dowěry njehódny pochad"
  },
  "version": {
    "message": "Wersija $1"
  },
  "xss.notify.generic": {
    "message": "NoScript je potencielny pospyt křižoweho skriptowanja (XSS) z $1 wufiltrował. Techniske podrobnosće su so w konsoli protokowali."
  },
  "xss.notify.showConsole": {
    "message": "Konsolu pokazać…"
  },
  "xss.notify.showConsole.accessKey": {
    "message": "K"
  },
  "xss.reason.filterXGet": {
    "message": "Podhladne požadanje je so porjedźiło. Originalny URL [$1] z [$2] požadany. Porjedźeny URL: [$3]."
  },
  "xss.reason.filterXGetRef": {
    "message": "Podhladny požadanski referer porjedźeny. URL [$1] z [$2] požadany. Porjedźeny referer: [$3]."
  },
  "xss.reason.filterXPost": {
    "message": "Podhladne nahraće do [$1] z [$2] porjedźene: přetwori so do požadanja GET wobmjezowaneho na sćehnjenje."
  }
}