{
  "ABE": {
    "message": "ΑBE"
  },
  "ABE.accesskey": {
    "message": "Α"
  },
  "ABE.chooseEditor": {
    "message": "Παρακαλούμε επιλέξτε επεξεργαστή κειμένου για σύνολα κανόνων ΑΒΕ"
  },
  "ABE.disable.accesskey": {
    "message": "ο"
  },
  "ABE.disable.label": {
    "message": "Απενεργοποίηση"
  },
  "ABE.edit.accesskey": {
    "message": "ε"
  },
  "ABE.edit.label": {
    "message": "Επεξεργασία..."
  },
  "ABE.enable.accesskey": {
    "message": "ν"
  },
  "ABE.enable.label": {
    "message": "Ενεργοποίηση"
  },
  "ABE.enabled.label": {
    "message": "Ενεργοποίηση ABE (Application Boundaries Enforcer)"
  },
  "ABE.notify": {
    "message": "Το αίτημα $1 φιλτραρίστηκε από τον κανόνα ABE: <$2> $3"
  },
  "ABE.refresh.accesskey": {
    "message": "α"
  },
  "ABE.refresh.label": {
    "message": "Ανανέωση"
  },
  "ABE.rulesets.label": {
    "message": "Σύνολα κανόνων:"
  },
  "ABE.siteEnabled.label": {
    "message": "Να επιτρέπεται σε ιστότοπους να επιβάλουν τα δικά τους σύνολα κανόνων"
  },
  "ABE.syntaxError": {
    "message": "Σφάλμα σύνταξης κανόνα ΑΒΕ"
  },
  "ABE.wanIpAsLocal": {
    "message": "WAN IP ($1) ∈ LOCAL"
  },
  "Add": {
    "message": "Προσθήκη"
  },
  "Add.accesskey": {
    "message": "Π"
  },
  "AdditionalPermissions": {
    "message": "Πρόσθετες εξουσιοδοτήσεις για έμπιστους ιστότοπους"
  },
  "AdditionalRestrictions": {
    "message": "Πρόσθετοι περιορισμοί για μη έμπιστους ιστότοπους"
  },
  "Advanced": {
    "message": "Για προχωρημένους"
  },
  "Allow": {
    "message": "Να επιτρέπεται"
  },
  "Allow.accesskey": {
    "message": "Ν"
  },
  "AllowBookmarks": {
    "message": "Να επιτρέπονται για ιστότοπους που υπάρχουν στους σελιδοδείκτες"
  },
  "AllowClipboard": {
    "message": "Να επιτρέπεται αντιγραφή και επικόλληση από το πρόχειρο (εξωτερικής εφαρμογής)"
  },
  "AllowLocalLinks": {
    "message": "Να επιτρέπονται τοπικοί δεσμοί"
  },
  "AllowPage": {
    "message": "Να επιτρέπεται γενικά για τη σελίδα"
  },
  "AllowPage.accesskey": {
    "message": "ε"
  },
  "AllowPing": {
    "message": "Να επιτρέπεται το <A PING…>"
  },
  "AllowViaBookmarks": {
    "message": "Να επιτρέπονται για ιστότοπους που υπάρχουν στους σελιδοδείκτες"
  },
  "AlwaysBlockUntrustedContent": {
    "message": "Μπλοκάρισμα κάθε αντικειμένου προερχόμενου από ιστότοπο σημειωμένο ως μη έμπιστο"
  },
  "Appearance": {
    "message": "Εμφάνιση"
  },
  "AutoAllowTopLevel": {
    "message": "Να επιτρέπεται προσωρινά για τον βασικό ιστότοπο (ως αρχική ρύθμιση)"
  },
  "AutoReload": {
    "message": "Αυτόματη ανανέωση των σελίδων που επηρεάζονται από την αλλαγή δικαιωμάτων"
  },
  "BaseDom": {
    "message": "Δευτερεύοντες βασικοί τομείς (noscript.net)"
  },
  "BlockedObjects": {
    "message": "Μπλοκαρισμένα αντικείμενα"
  },
  "BookmarkSync": {
    "message": "Αντίγραφο ρυθμίσεων του NoScript σε σελιδοδείκτη για εύκολο συγχρονισμό"
  },
  "ClearClickDescription": {
    "message": "Το NoScript εντόπισε αλληλεπίδραση του ποντικιού ή του πληκτρολογίου με ένα μερικώς κρυφό στοιχείο. Κάντε κλικ στην παραπάνω εικόνα για εναλλαγή ανάμεσα στην απαγορευμένη και την επιτρεπόμενη εκδοχή."
  },
  "ClearClickHeader": {
    "message": "Πιθανή προσπάθεια επικάλυψης UI / Clickjacking!"
  },
  "ClearClickOpt": {
    "message": "Προστασία clearClick σε ιστότοπους..."
  },
  "ClearClickReport": {
    "message": "Αναφορά"
  },
  "ClearClickReport.accesskey": {
    "message": "α"
  },
  "ClearClickReportId": {
    "message": "Αναγνωριστικό αναφοράς:"
  },
  "ClearClickTitle": {
    "message": "Προειδοποίηση clearClick"
  },
  "Close": {
    "message": "Κλείσιμο"
  },
  "CollapseBlockedObjects": {
    "message": "Σύμπτυξη μπλοκαρισμένων αντικειμένων"
  },
  "ConfirmUnblock": {
    "message": "Να γίνεται ερώτηση πριν επιτραπεί προσωρινά ένα αντικείμενο"
  },
  "ContentBlocker": {
    "message": "Εφαρμογή αυτών των περιορισμών και σε έμπιστους ιστότοπους"
  },
  "CtxMenu": {
    "message": "Μενού περιεχομένου"
  },
  "DefaultPolicies": {
    "message": "Αρχικές πολιτικές συμπεριφοράς"
  },
  "Description": {
    "message": "Πρόσθετη προστασία για τον Firefox. Οι ειδικοί συμφωνούν: το NoScript δίνει μεγαλύτερη ασφάλεια στον Firefox. :-)"
  },
  "Donate": {
    "message": "Δωρεά"
  },
  "Donate.accesskey": {
    "message": "ω"
  },
  "Embeddings": {
    "message": "Ενσωματωμένα αντικείμενα"
  },
  "Exceptions": {
    "message": "Εξαιρέσεις…"
  },
  "Export": {
    "message": "Εξαγωγή"
  },
  "Export.accesskey": {
    "message": "ξ"
  },
  "FixLinks": {
    "message": "Να γίνεται προσπάθεια διόρθωσης δεσμών JavaScript"
  },
  "Forbid": {
    "message": "Απαγόρευση"
  },
  "Forbid.accesskey": {
    "message": "Α"
  },
  "ForbidBookmarklets": {
    "message": "Απαγόρευση εκτέλεσης bookmarklets"
  },
  "ForbidFlash": {
    "message": "Απαγόρευση εκτέλεσης Adobe® Flash®"
  },
  "ForbidFonts": {
    "message": "Να απαγορεύεται το @font-face"
  },
  "ForbidFrames": {
    "message": "Απαγόρευση εκτέλεσης <FRAME>"
  },
  "ForbidIFrames": {
    "message": "Απαγόρευση εκτέλεσης <IFRAME>"
  },
  "ForbidJava": {
    "message": "Απαγόρευση εκτέλεσης Java™"
  },
  "ForbidMedia": {
    "message": "Να απαγορεύονται τα <AUDIO> / <VIDEO>"
  },
  "ForbidMetaRefresh": {
    "message": "Να απαγορεύονται οι ανακατευθύνσεις META σε στοιχεία <NOSCRIPT>"
  },
  "ForbidMetaRefresh.accesskey": {
    "message": "θ"
  },
  "ForbidPing": {
    "message": "Να απαγορεύεται το <A PING…>"
  },
  "ForbidPlugins": {
    "message": "Απαγόρευση εκτέλεσης άλλων πρόσθετων λειτουργιών"
  },
  "ForbidSilverlight": {
    "message": "Απαγόρευση εκτέλεσης Microsoft® Silverlight™"
  },
  "ForbidWebGL": {
    "message": "Να απαγορεύεται το WebGL"
  },
  "ForbidXSLT": {
    "message": "Απαγόρευση εκτέλεσης XSLT"
  },
  "FrameOptErr.desc": {
    "message": "Για να προστατεύσει την ασφάλεια σας, ο εκδότης του περιεχομένου δεν επιτρέπει την προβολή σε πλαίσιο"
  },
  "FrameOptErr.link": {
    "message": "Κάντε κλικ εδώ για να ανοίξετε το περιεχόμενο σε νέο παράθυρο"
  },
  "FrameOptErr.title": {
    "message": "Αυτό το περιεχόμενο δεν μπορεί να παρουσιαστεί σε πλαίσιο"
  },
  "FullAddr": {
    "message": "Πλήρεις διευθύνσεις (http://www.noscript.net)"
  },
  "FullDom": {
    "message": "Πλήρεις τομείς (www.noscript.net)"
  },
  "General": {
    "message": "Γενικά"
  },
  "GloballyEnabled": {
    "message": "Να επιτρέπονται τα σενάρια εντολών γενικά (μη ασφαλές)"
  },
  "Https": {
    "message": "HTTPS"
  },
  "Https.always": {
    "message": "Πάντα"
  },
  "Https.behavior": {
    "message": "Συμπεριφορά"
  },
  "Https.cookies": {
    "message": "Cookies"
  },
  "Https.description": {
    "message": "Να απαγορεύεται ενεργό περιεχόμενο εκτός κι αν παρέχεται μέσω ασφαλούς (HTTPS) σύνδεσης:"
  },
  "Https.never": {
    "message": "Ποτέ"
  },
  "Https.proxy": {
    "message": "Όταν γίνεται χρήση διαμεσολαβητή (συνιστάται για το δίκτυο Tor)"
  },
  "HttpsFaq": {
    "message": "Συχνές ερωτήσεις HTTPS"
  },
  "HttpsFaq.accesskey": {
    "message": "ε"
  },
  "HttpsForced": {
    "message": "Εξαναγκασμός των παρακάτω ιστότοπων σε χρήση ασφαλούς (HTTPS) σύνδεσης:"
  },
  "HttpsForcedExceptions": {
    "message": "Να μην γίνεται εξαναγκασμός χρήσης ασφαλούς (HTTPS) σύνδεσης για τους παρακάτω ιστότοπους:"
  },
  "Import": {
    "message": "Εισαγωγή"
  },
  "Import.accesskey": {
    "message": "Ε"
  },
  "KeepLocked": {
    "message": "Διατήρηση κλειδώματος στοιχείου (συνιστάται)"
  },
  "MatchSample": {
    "message": "Παράδειγμα ταιριάσματος μοτίβου:"
  },
  "Next": {
    "message": "Επόμενο"
  },
  "NoUntrustedPlaceholder": {
    "message": "Χωρίς εικονίδια γεμίσματος για αντικείμενα από μη έμπιστους ιστότοπους"
  },
  "Notifications": {
    "message": "Ειδοποιήσεις"
  },
  "Notify": {
    "message": "Προβολή μηνύματος για μπλοκαρισμένα σενάρια εντολών"
  },
  "Notify.bottom": {
    "message": "Τοποθέτηση μηνύματος στο κάτω μέρος"
  },
  "NotifyMeta": {
    "message": "Προβολή μηνύματος για μπλοκαρισμένες ανακατευθύνσεις «ΜΕΤΑ»"
  },
  "NotifyMeta.accesskey": {
    "message": "ν"
  },
  "NselForce": {
    "message": "Προβολή του στοιχείου <NOSCRIPT> που ακολουθεί μπλοκαρισμένα σενάρια εντολών"
  },
  "NselNever": {
    "message": "Απόκρυψη στοιχείων <NOSCRIPT>"
  },
  "OptBlockCssScanners": {
    "message": "Μπλοκάρισμα ανιχνεύσεων CSS"
  },
  "OptFilterXGet": {
    "message": "Εκκαθάριση αιτημάτων ύποπτων ως cross-site scripting"
  },
  "OptFilterXPost": {
    "message": "Μετατροπή αιτημάτων cross-site POST σε κενά περιεχομένου αιτήματα GET"
  },
  "Options": {
    "message": "Επιλογές"
  },
  "Options.accesskey": {
    "message": "Ε"
  },
  "OptionsLong": {
    "message": "Επιλογές NoScript"
  },
  "OptionsWidth": {
    "message": "40em"
  },
  "Permissions": {
    "message": "Δικαιώματα"
  },
  "PermissionsText": {
    "message": "Μπορείτε να καθορίσετε για ποιους ιστότοπους θα επιτρέπεται η εκτέλεση σεναρίων εντολών. Πληκτρολογήστε τη διεύθυνση τομέα (πχ. \"http://www.site.com\" or \"site.com\") του ιστότοπου που θέλετε και μετά κάντε κλικ στο «Να επιτρέπεται»"
  },
  "Plugins": {
    "message": "Πρόσθετες λειτουργίες"
  },
  "Policies": {
    "message": "Πολιτικές συμπεριφοράς"
  },
  "Preset": {
    "message": "Βαθμός ασφαλείας"
  },
  "Preset.high": {
    "message": "Οχυρό (Πλήρης αποκλεισμός)"
  },
  "Preset.low": {
    "message": "Χαλαρό (Λίστα απαγορευμένων + Δικτυακή ασφάλεια)"
  },
  "Preset.medium": {
    "message": "Κλασικό (Λίστα επιτρεπομένων + δικτυακή ασφάλεια)"
  },
  "Preset.off": {
    "message": "Απενεργοποιημένο (είστε σίγουροι;!)"
  },
  "Prev": {
    "message": "Προηγούμενο"
  },
  "RecentBlocked": {
    "message": "Πρόσφατα απαγορευμένοι ιστότοποι"
  },
  "Refresh": {
    "message": "Ανανέωση"
  },
  "ReloadWarn": {
    "message": "Αυτές οι επιλογές θα εφαρμοστούν σε σελίδες που θα ανανεώσετε μόνοι σας ή θα φορτώσετε από undefinedδω και πέρα"
  },
  "RemoveSelected": {
    "message": "Αφαίρεση επιλεγμένων ιστότοπων"
  },
  "Reset": {
    "message": "Επαναφορά αρχικών ρυθμίσεων"
  },
  "Reset.accesskey": {
    "message": "Ε"
  },
  "ResetDef": {
    "message": "Επαναφορά αρχικών ρυθμίσεων"
  },
  "ResetDef.accesskey": {
    "message": "σ"
  },
  "RevokeTemp": {
    "message": "Αναίρεση προσωρινών αδειοδοτήσεων"
  },
  "RevokeTemp.accesskey": {
    "message": "ν"
  },
  "SecureCookies": {
    "message": "Ενεργοποίηση αυτόματης ασφαλούς διαχείρισης cookies"
  },
  "SecureCookiesExceptions": {
    "message": "Να αγνοούνται μη ασφαλή cookies που εγκαταστάθηκαν μέσω HTTPS από τους ακόλουθους ιστότοπους:"
  },
  "SecureCookiesForced": {
    "message": "Εξαναγκασμός κρυπτογράφησης σε όλα τα cookies που εγκαταστάθηκαν μέσω HTTPS από τους ακόλουθους ιστότοπους:"
  },
  "SecurityManager": {
    "message": "Διαχειριστής ασφαλείας"
  },
  "Show": {
    "message": "Προβολή…"
  },
  "ShowConsole": {
    "message": "Προβολή κονσόλας…"
  },
  "ShowConsole.accesskey": {
    "message": "κ"
  },
  "ShowPlaceholder": {
    "message": "Προβολή εικονιδίου γεμίσματος"
  },
  "ShowReleaseNotes": {
    "message": "Προβολή των σημειώσεων έκδοσης μετά από ενημέρωση"
  },
  "SiteManager": {
    "message": "Διαχειριστής ιστότοπων"
  },
  "SitePolicies": {
    "message": "Πολιτικές συμπεριφοράς για συγκεκριμένους ιστότοπους"
  },
  "StatusIcon": {
    "message": "Εικονίδιο γραμμής κατάστασης"
  },
  "StatusLabel": {
    "message": "Ετικέτα γραμμής κατάστασης"
  },
  "TempAllowPage": {
    "message": "Να επιτρέπεται προσωρινά γενικά για τη σελίδα"
  },
  "TempAllowPage.accesskey": {
    "message": "σ"
  },
  "TempCmd": {
    "message": "Να επιτρέπονται προσωρινά […]"
  },
  "TempToPerm": {
    "message": "Μετατροπή δικαιωμάτων σελίδας σε μόνιμα"
  },
  "TempToPerm.accesskey": {
    "message": "ν"
  },
  "ToolbarToggle": {
    "message": "Εναλλαγή δικαιωμάτων για τον βασικό ιστότοπο με αριστερό κλικ στο εικονίδιο της εργαλειοθήκης"
  },
  "TruncateTitle": {
    "message": "Σύντμηση τίτλων εγγράφων"
  },
  "Trust": {
    "message": "Σημείωση ως έμπιστο"
  },
  "Trust.accesskey": {
    "message": "ε"
  },
  "Trusted": {
    "message": "Έμπιστο"
  },
  "TrustedPagesAdj": {
    "message": "έμπιστους"
  },
  "Uninstall": {
    "message": "Απεγκατάσταση"
  },
  "Unknown": {
    "message": "Άγνωστο"
  },
  "UnsafeReload": {
    "message": "Μη ασφαλής ανανέωση"
  },
  "UnsafeReload.accesskey": {
    "message": "Μ"
  },
  "Untrust": {
    "message": "Σημείωση ως μη έμπιστο"
  },
  "Untrust.accesskey": {
    "message": "μ"
  },
  "Untrusted": {
    "message": "Μη έμπιστο"
  },
  "UntrustedPagesAdj": {
    "message": "μη έμπιστους"
  },
  "WebAddress": {
    "message": "Διεύθυνση ιστότοπου"
  },
  "Whitelist": {
    "message": "Λίστα επιτρεπομένων"
  },
  "Xss": {
    "message": "XSS"
  },
  "Xss.accesskey": {
    "message": "X"
  },
  "XssExceptions": {
    "message": "Εξαιρέσεις από προστασία αντι-XSS"
  },
  "XssExceptions.description": {
    "message": "Δεν θα παρέχεται προστασία αντί-XSS για προορισμούς που ταιριάζουν με τις κανονικές εκφράσεις:"
  },
  "XssFaq": {
    "message": "Συχνές ερωτήσεις XSS…"
  },
  "XssFaq.accesskey": {
    "message": "χ"
  },
  "about": {
    "message": "Περί $1"
  },
  "allowFrom": {
    "message": "Να επιτρέπονται όλα από $1"
  },
  "allowGlobal": {
    "message": "Να επιτρέπονται τα σενάρια εντολών γενικά (επικίνδυνο)"
  },
  "allowLocal": {
    "message": "Να επιτρέπεται για $1"
  },
  "allowTemp": {
    "message": "Να επιτρέπεται προσωρινά για $1"
  },
  "allowTempFrom": {
    "message": "Να επιτρέπονται προσωρινά όλα από $1"
  },
  "allowed.glb": {
    "message": "Κίνδυνος! Τα σενάρια εντολών επιτρέπονται γενικά"
  },
  "allowed.no": {
    "message": "Τα σενάρια εντολών δεν επιτρέπονται προς το παρόν"
  },
  "allowed.prt": {
    "message": "Τα σενάρια εντολών επιτρέπονται μερικώς"
  },
  "allowed.yes": {
    "message": "Τα σενάρια εντολών επιτρέπονται προς το παρόν"
  },
  "alwaysAsk": {
    "message": "Να γίνεται πάντα ερώτηση για επιβεβαίωση"
  },
  "audio.samples": {
    "message": "Δείγματα ήχου"
  },
  "bookmarkSync.confirm": {
    "message": "Το NoScript εντόπισε ένα σελιδοδείκτη συγχρονισμού ρυθμίσεων αποθηκευμένο στο\n$1.\nΘέλετε σίγουρα να αντικαταστήσετε τις τοπικές σας ρυθμίσεις του NoScript με τα περιεχόμενα αυτού του σελιδοδείκτη;"
  },
  "bookmarkSync.message": {
    "message": "Αυτός ο σελιδοδείκτης δεν προορίζεται για άνοιγμα αλλά για συγχρονισμό ρυθμίσεων με υπηρεσίες όπως το Weave ή η επέκταση XMarks"
  },
  "bookmarkSync.title": {
    "message": "Σελιδοδείκτης ρυθμίσεων NoScript"
  },
  "changelog": {
    "message": "Ιστορικό αλλαγών"
  },
  "changelog.tip": {
    "message": "Προβολή ιστορικού αλλαγών"
  },
  "confirm": {
    "message": "Είστε σίγουροι για την επιλογή σας;"
  },
  "disable": {
    "message": "Απενεργοποίηση $1"
  },
  "disable.accessKey": {
    "message": "π"
  },
  "distrust": {
    "message": "Σημείωση του $1 ως μη έμπιστου"
  },
  "extensionContributors": {
    "message": "Συντελεστές :"
  },
  "extensionContributors.tip": {
    "message": "Άνθρωποι τους οποίους θα πρέπει να ευγνωμονείτε για αυτή την επέκταση"
  },
  "extensionCreator.tip": {
    "message": "Επισκεφτείτε την ιστοσελίδα του δημιουργού"
  },
  "extensionCreatorLabel": {
    "message": "Δημιουργός :"
  },
  "extensionHomepage.tip": {
    "message": "Επισκεφτείτε την ιστοσελίδα της επέκτασης"
  },
  "extensions.{73a6fe31-595d-460b-a920-fcc0f8843232}.description": {
    "message": "Πρόσθετη προστασία για τον Firefox. Οι ειδικοί συμφωνούν: Το Noscript δίνει μεγαλύτερη ασφάλεια στον Firefox :-)"
  },
  "forbidGlobal": {
    "message": "Να απαγορεύονται τα σενάρια εντολών γενικά (προτεινόμενο)"
  },
  "forbidLocal": {
    "message": "Να απαγορεύεται για $1"
  },
  "global.warning.text": {
    "message": "Τα σενάρια εντολών θα επιτρέπονται γενικά (σε όλες τις σελίδες).\n Αυτό είναι πιθανότατα επικίνδυνο.\nΝα εφαρμοστεί;"
  },
  "global.warning.title": {
    "message": "Προειδοποίηση!"
  },
  "informaction.tip": {
    "message": "Επισκεφθείτε την αρχική σελίδα του InformAction"
  },
  "license": {
    "message": "Άδεια χρήσης"
  },
  "license.tip": {
    "message": "Διαβάστε την άδεια τελικού χρήστη"
  },
  "logo.tip": {
    "message": "Επισκεφθείτε την αρχική σελίδα της επέκτασης"
  },
  "metaRefresh.notify": {
    "message": "Το NoScript μπλόκαρε μια ανακατεύθυνση <META> εντός ενός στοιχείου <NOSCRIPT>: $1 σε $2 δευτερόλεπτα."
  },
  "metaRefresh.notify.follow": {
    "message": "Ακολούθηση ανακατεύθυνσης"
  },
  "metaRefresh.notify.follow.accessKey": {
    "message": "Α"
  },
  "notify.options": {
    "message": "Επιλογές"
  },
  "notify.options.accessKey": {
    "message": "Ε"
  },
  "notifyHide": {
    "message": "Απόκρυψη μετά από $1 δευτερόλεπτα"
  },
  "reset.title": {
    "message": "Επαναφορά αρχικών ρυθμίσεων του NoScript"
  },
  "reset.warning": {
    "message": "Θα γίνει επαναφορά στις αρχικές ρυθμίσεις όλων των επιλογών του NoScript και των δικαιωμάτων ιστότοπων..\n Αυτή η ενέργεια δεν είναι αναστρέψιμη.\n Συνέχεια;"
  },
  "siteInfo.confirm": {
    "message": "Πρόκειται να ζητήσετε πληροφορίες για τον ιστότοπο «$1»\nυποβάλλοντας αίτημα στο $2.\nΘέλετε να συνεχίσετε;"
  },
  "siteInfo.tooltip": {
    "message": "Πατήστε μεσαίο ή shift + κλικ για πληροφορίες ιστότοπου..."
  },
  "sponsor.tip": {
    "message": "Επισκεφθείτε τη σελίδα του χορηγού"
  },
  "trust": {
    "message": "Να θεωρείται έμπιστο το $1"
  },
  "unsafeReload.warning": {
    "message": "ΜΗ ΑΣΦΑΛΗΣ ανανέωση ύποπτου\n\n$1 [$2]\n\nΑπό[$3]\n\nΤο NoScript δεν παρέχει προστασία γι' αυτό το αίτημα!\n"
  },
  "untrustedOrigin": {
    "message": "μια μη έμπιστη πηγή"
  },
  "version": {
    "message": "Έκδοση $1"
  },
  "xss.notify.generic": {
    "message": "Το NoScript φίλτραρε μια πιθανή απόπειρα cross-site scripting (XSS) από το $1. Οι λεπτομέρειες έχουν καταγραφεί στην κονσόλα."
  },
  "xss.notify.showConsole": {
    "message": "Προβολή κονσόλας…"
  },
  "xss.notify.showConsole.accessKey": {
    "message": "κ"
  },
  "xss.reason.filterXGet": {
    "message": "Έγινε εκκαθάριση ύποπτου αιτήματος. Υπήρχε αίτημα για το αρχικό URL [$1] από το [$2]. Εκκαθαρίστηκε το URL: [$3]."
  },
  "xss.reason.filterXGetRef": {
    "message": "Έγινε εκκαθάριση ύποπτου αιτήματος referer. Υπήρχε αίτημα για το URL [$1] από το [$2]. Εκκαθαρίστηκε ο Referer: [$3]."
  },
  "xss.reason.filterXPost": {
    "message": "Έγινε εκκαθάριση ύποπτης αποστολής από το [$2] στο [$1]. Μετατράπηκε σε αίτημα GET λήψης."
  }
}