{
  "ABE": {
    "message": "ABE"
  },
  "ABE.accesskey": {
    "message": "A"
  },
  "ABE.chooseEditor": {
    "message": "Kérem válassza ki a szövegszerkesztőt az ABE szabálycsomaghoz"
  },
  "ABE.disable.accesskey": {
    "message": "L"
  },
  "ABE.disable.label": {
    "message": "Letiltás"
  },
  "ABE.edit.accesskey": {
    "message": "S"
  },
  "ABE.edit.label": {
    "message": "Szerkesztés..."
  },
  "ABE.enable.accesskey": {
    "message": "E"
  },
  "ABE.enable.label": {
    "message": "Engedélyezés"
  },
  "ABE.enabled.label": {
    "message": "ABE engedélyezése (Application Boundaries Enforcer)"
  },
  "ABE.notify": {
    "message": "A $1 kérést az ABE kiszűrte: <$2> $3"
  },
  "ABE.refresh.accesskey": {
    "message": "F"
  },
  "ABE.refresh.label": {
    "message": "Frissítés"
  },
  "ABE.rulesets.label": {
    "message": "Szabálycsomagok:"
  },
  "ABE.siteEnabled.label": {
    "message": "A weboldalak hozzáadhatják saját szabálycsomagjaikat"
  },
  "ABE.syntaxError": {
    "message": "Szintaxis hiba az ABE szabálycsoportban!"
  },
  "ABE.wanIpAsLocal": {
    "message": "WAN IP ($1) ∈ LOCAL"
  },
  "Add": {
    "message": "Hozzáadás"
  },
  "Add.accesskey": {
    "message": "H"
  },
  "AdditionalPermissions": {
    "message": "A megbízható webhelyek további engedélyei"
  },
  "AdditionalRestrictions": {
    "message": "A megbízhatatlan webhelyek további korlátozásai"
  },
  "Advanced": {
    "message": "Speciális"
  },
  "Allow": {
    "message": "Engedélyezés"
  },
  "Allow.accesskey": {
    "message": "N"
  },
  "AllowBookmarks": {
    "message": "A könyvjelzőkben található összes webhely engedélyezése"
  },
  "AllowClipboard": {
    "message": "A rich text másolás és a külső vágólapról történő beillesztés engedélyezése"
  },
  "AllowLocalLinks": {
    "message": "Helyi linkek engedélyezése"
  },
  "AllowPage": {
    "message": "Parancsfájlok engedélyezése az oldalon"
  },
  "AllowPage.accesskey": {
    "message": "e"
  },
  "AllowPing": {
    "message": "Engedélyezés: <A PING…>"
  },
  "AllowViaBookmarks": {
    "message": "A könyvjelzőből megnyitott webhelyek engedélyezése"
  },
  "AlwaysBlockUntrustedContent": {
    "message": "Minden megbízhatatlanként megjelölt oldalról érkező objektum blokkolása"
  },
  "Appearance": {
    "message": "Megjelenés"
  },
  "AutoAllowTopLevel": {
    "message": "Legmagasabb szintű webhelyek ideiglenes engedélyezése"
  },
  "AutoReload": {
    "message": "Az érintett oldalak automatikus újratöltése az engedélyek megváltoztatásakor"
  },
  "BaseDom": {
    "message": "Alap 2. szintű tartományok (noscript.net)"
  },
  "BlockedObjects": {
    "message": "Blokkolt objektumok"
  },
  "BookmarkSync": {
    "message": "A NoScript konfigurációjának biztonsági mentése könyvjelzőbe (a szinkronizáció egyszerűbbé tétele)"
  },
  "ClearClickDescription": {
    "message": "A NoScript billentyűzet vagy egér kölcsönhatását észlelte egy részlegesen rejtett objektummal. A képre kattintva válthat a gyanús és a tiszta változat között."
  },
  "ClearClickHeader": {
    "message": "Kattintás után hamisítványgyanús viselkedés lehetséges!"
  },
  "ClearClickOpt": {
    "message": "ClearClick védelem a"
  },
  "ClearClickReport": {
    "message": "Jelentés"
  },
  "ClearClickReport.accesskey": {
    "message": "J"
  },
  "ClearClickReportId": {
    "message": "Jelentés azonosító:"
  },
  "ClearClickTitle": {
    "message": "ClearClick figyelmeztetések"
  },
  "Close": {
    "message": "Bezárás"
  },
  "CollapseBlockedObjects": {
    "message": "Blokkolt objektumok összecsukása"
  },
  "ConfirmUnblock": {
    "message": "Megerősítés kérése egy objektum ideiglenes feloldása előtt"
  },
  "ContentBlocker": {
    "message": "A korlátozások alkalmazása a megbízható webhelyekre is"
  },
  "CtxMenu": {
    "message": "Helyi menü"
  },
  "DefaultPolicies": {
    "message": "Alapértelmezett kezelés"
  },
  "Description": {
    "message": "Firefox extra védelme: NoScript engedélyezheti a JavaScript, Flash (és más beépülőket) az Ön által megadott webhelyekre (pl. átutalások interneten keresztül). Ez a megbízható szervereket tartalmazó lista megelőző blokkoláson alapszik, így óv a támadásoktól a biztonsági réseken keresztül (ismert és ismeretlen!), mindezt működés közben… Az expertek egyetértenek: A Firefox a NoScript kiterjesztéssel valóban biztonságosabb :-)"
  },
  "Donate": {
    "message": "Hozzájárulás"
  },
  "Donate.accesskey": {
    "message": "o"
  },
  "Embeddings": {
    "message": "Beágyazott objektumok"
  },
  "Exceptions": {
    "message": "Kivételek…"
  },
  "Export": {
    "message": "Exportálás"
  },
  "Export.accesskey": {
    "message": "E"
  },
  "FixLinks": {
    "message": "Kísérlet a JavaScript hivatkozások javítására"
  },
  "Forbid": {
    "message": "Letiltás"
  },
  "Forbid.accesskey": {
    "message": "L"
  },
  "ForbidBookmarklets": {
    "message": "A bookmarkletek (könyvjelzők) letiltása"
  },
  "ForbidFlash": {
    "message": "Az Adobe® Flash® tiltása"
  },
  "ForbidFonts": {
    "message": "A @font-face letiltása"
  },
  "ForbidFrames": {
    "message": "A <FRAME> tiltása"
  },
  "ForbidIFrames": {
    "message": "Az <IFRAME> tiltása"
  },
  "ForbidJava": {
    "message": "A Java™ tiltása"
  },
  "ForbidMedia": {
    "message": "Az <AUDIO> / <VIDEO> letiltása"
  },
  "ForbidMetaRefresh": {
    "message": "META átirányítások letiltása a <NOSCRIPT> elemekben"
  },
  "ForbidMetaRefresh.accesskey": {
    "message": "l"
  },
  "ForbidPing": {
    "message": "Letiltás: <A PING…>"
  },
  "ForbidPlugins": {
    "message": "Egyéb beépülő modulok tiltása"
  },
  "ForbidSilverlight": {
    "message": "A Microsoft® Silverlight™ tiltása"
  },
  "ForbidWebGL": {
    "message": "A WebGL letiltása"
  },
  "ForbidXSLT": {
    "message": "A XSLT tiltása"
  },
  "FrameOptErr.desc": {
    "message": "A tartalom kiadója nem engedélyezte annak keretben történő megjelenítését."
  },
  "FrameOptErr.link": {
    "message": "Kattintson ide a tartalom megjelenítéséhez új ablakban"
  },
  "FrameOptErr.title": {
    "message": "Ez a tartalom keretben nem jeleníthető meg"
  },
  "FullAddr": {
    "message": "Teljes címek (http://www.noscript.net)"
  },
  "FullDom": {
    "message": "Teljes tartományok (www.noscript.net)"
  },
  "General": {
    "message": "Általános"
  },
  "GloballyEnabled": {
    "message": "A parancsfájlok általános futtatása engedélyezett (veszélyes)"
  },
  "Https": {
    "message": "HTTPS"
  },
  "Https.always": {
    "message": "Mindig"
  },
  "Https.behavior": {
    "message": "Viselkedés"
  },
  "Https.cookies": {
    "message": "Sütik"
  },
  "Https.description": {
    "message": "Aktív tartalom letiltása, ha nem biztonságos kapcsolatról (HTTPS) ered:"
  },
  "Https.never": {
    "message": "Soha"
  },
  "Https.proxy": {
    "message": "Ha proxy szerver van használatban (Tor ajánlott)"
  },
  "HttpsFaq": {
    "message": "HTTPS GyIK..."
  },
  "HttpsFaq.accesskey": {
    "message": "y"
  },
  "HttpsForced": {
    "message": "Biztonságos hozzáférés (HTTPS) erőltetése az alábbi oldalaknál:"
  },
  "HttpsForcedExceptions": {
    "message": "Ne erőltesse a biztonságos hozzáférést (HTTPS) az alábbi oldalaknál:"
  },
  "Import": {
    "message": "Importálás"
  },
  "Import.accesskey": {
    "message": "I"
  },
  "KeepLocked": {
    "message": "Az elem blokkolása a továbbiakban is (ajánlott)"
  },
  "MatchSample": {
    "message": "Sablon példa:"
  },
  "Next": {
    "message": "Következő"
  },
  "NoUntrustedPlaceholder": {
    "message": "Nincs helykitöltő a megbízhatatlannak megjelölt webhelyekről érkező objektumoknál"
  },
  "Notifications": {
    "message": "Jelentések"
  },
  "Notify": {
    "message": "Üzenet megjelenítése a blokkolt parancsfájlokról"
  },
  "Notify.bottom": {
    "message": "Az üzenet alulra helyezése"
  },
  "NotifyMeta": {
    "message": "Üzenet megjelenítése a blokkolt META átirányításokról"
  },
  "NotifyMeta.accesskey": {
    "message": "y"
  },
  "NselForce": {
    "message": "<NOSCRIPT> elem megjelenítése, amely a blokkolt <SCRIPT> után következik"
  },
  "NselNever": {
    "message": "<NOSCRIPT> elemek elrejtése"
  },
  "OptBlockCssScanners": {
    "message": "CSS-alapú szkennerek blokkolása"
  },
  "OptFilterXGet": {
    "message": "Gyanús XSS hozzáférések kezelése"
  },
  "OptFilterXPost": {
    "message": "POST hozzáférés átváltása GET hozzáférésre"
  },
  "Options": {
    "message": "Beállítások…"
  },
  "Options.accesskey": {
    "message": "B"
  },
  "OptionsLong": {
    "message": "A NoScript beállításai"
  },
  "OptionsWidth": {
    "message": "40em"
  },
  "Permissions": {
    "message": "Engedélyek"
  },
  "PermissionsText": {
    "message": "Megadhatja, hogy mely webhelyek számára engedélyezi a parancsfájlok futtatását. Írja be az engedélyezni kívánt webhely címét vagy tartomány nevét (pl. \"http://www.webhely.hu\" vagy \"webhely.hu\"), majd kattintson az Engedélyezés gombra."
  },
  "Plugins": {
    "message": "Beépülők"
  },
  "Policies": {
    "message": "Kezelés"
  },
  "Preset": {
    "message": "Biztonsági szint"
  },
  "Preset.high": {
    "message": "Erős (teljes szűrés)"
  },
  "Preset.low": {
    "message": "Gyenge (feketelista + web biztonság)"
  },
  "Preset.medium": {
    "message": "Klasszikus (fehérlista + web biztonság)"
  },
  "Preset.off": {
    "message": "Kikapcsolás (valóban?!)"
  },
  "Prev": {
    "message": "Előző"
  },
  "RecentBlocked": {
    "message": "Legutoljára blokkolt oldalak"
  },
  "Refresh": {
    "message": "Újratöltés"
  },
  "ReloadWarn": {
    "message": "Ezek a beállítások új vagy (kézzel) újratöltött oldalaknál lépnek érvénybe"
  },
  "RemoveSelected": {
    "message": "A kiválasztott webhelyek eltávolítása"
  },
  "Reset": {
    "message": "Alaphelyzet"
  },
  "Reset.accesskey": {
    "message": "A"
  },
  "ResetDef": {
    "message": "Alaphelyzetbe állít"
  },
  "ResetDef.accesskey": {
    "message": "h"
  },
  "RevokeTemp": {
    "message": "Ideiglenes hozzáférések visszavonása"
  },
  "RevokeTemp.accesskey": {
    "message": "v"
  },
  "SecureCookies": {
    "message": "Biztonságos sütik automatikus kezelésének engedélyezése"
  },
  "SecureCookiesExceptions": {
    "message": "Veszélyes sütik figyelmen kívül hagyása, amelyek HTTPS segítségével lettek beállítva az alábbi oldalakon:"
  },
  "SecureCookiesForced": {
    "message": "Sütik titkosításának erőltetése, amelyek HTTPS segítségével lettek beállítva az alábbi oldalakon:"
  },
  "SecurityManager": {
    "message": "Megbízhatóság-kezelő"
  },
  "Show": {
    "message": "Megjelenítés…"
  },
  "ShowConsole": {
    "message": "Konzol megjelenítése…"
  },
  "ShowConsole.accesskey": {
    "message": "K"
  },
  "ShowPlaceholder": {
    "message": "A helykitöltő ikon megjelenítése"
  },
  "ShowReleaseNotes": {
    "message": "Kiadási megjegyzések megjelenítése frissítéskor"
  },
  "SiteManager": {
    "message": "Webhely-kezelő"
  },
  "SitePolicies": {
    "message": "Webhelyspecifikus kezelés"
  },
  "StatusIcon": {
    "message": "Ikon az állapotsoron"
  },
  "StatusLabel": {
    "message": "Az állapotsor címkéje"
  },
  "TempAllowPage": {
    "message": "Parancsfájlok ideiglenes engedélyezése az oldalon"
  },
  "TempAllowPage.accesskey": {
    "message": "i"
  },
  "TempCmd": {
    "message": "Ideiglenes engedélyezés […]"
  },
  "TempToPerm": {
    "message": "Oldal jogosultságok állandósítása"
  },
  "TempToPerm.accesskey": {
    "message": "j"
  },
  "ToolbarToggle": {
    "message": "Az eszköztár ikonjának helyi menüje megváltoztathatja a jelenlegi webhely (legmagasabb szint) engedélyeit"
  },
  "TruncateTitle": {
    "message": "A dokumentumok címeinek lerövidítése"
  },
  "Trust": {
    "message": "Megjelölés megbízhatóként"
  },
  "Trust.accesskey": {
    "message": "b"
  },
  "Trusted": {
    "message": "Megbízható"
  },
  "TrustedPagesAdj": {
    "message": "biztonságos oldalakon"
  },
  "Uninstall": {
    "message": "Eltávolítás"
  },
  "Unknown": {
    "message": "Ismeretlen"
  },
  "UnsafeReload": {
    "message": "Megbízhatatlan újratöltése"
  },
  "UnsafeReload.accesskey": {
    "message": "N"
  },
  "Untrust": {
    "message": "Megjelölés megbízhatatlanként"
  },
  "Untrust.accesskey": {
    "message": "n"
  },
  "Untrusted": {
    "message": "Megbízhatatlan"
  },
  "UntrustedPagesAdj": {
    "message": "nem biztonságos oldalakon"
  },
  "WebAddress": {
    "message": "A webhely címe:"
  },
  "Whitelist": {
    "message": "Fehérlista"
  },
  "Xss": {
    "message": "XSS"
  },
  "Xss.accesskey": {
    "message": "X"
  },
  "XssExceptions": {
    "message": "Anti-XSS védelem kivételek"
  },
  "XssExceptions.description": {
    "message": "A következő reguláris kifejezéseknek megfelelő webhelyek NEM LESZNEK az XSS ellen védve."
  },
  "XssFaq": {
    "message": "XSS GYIK…"
  },
  "XssFaq.accesskey": {
    "message": "G"
  },
  "about": {
    "message": "A $1 névjegye"
  },
  "allowFrom": {
    "message": "Mindegyik engedélyezése: $1"
  },
  "allowGlobal": {
    "message": "A parancsfájlok általános engedélyezése (veszélyes)"
  },
  "allowLocal": {
    "message": "Engedélyezés: $1"
  },
  "allowTemp": {
    "message": "Ideiglenes engedélyezés: $1"
  },
  "allowTempFrom": {
    "message": "Mindegyik ideiglenes engedélyezése: $1"
  },
  "allowed.glb": {
    "message": "Veszélyes! A parancsfájlok általános futtatása engedélyezett"
  },
  "allowed.no": {
    "message": "A parancsfájlok futtatása jelenleg letiltott"
  },
  "allowed.prt": {
    "message": "A parancsfájlok futtatása részben engedélyezett"
  },
  "allowed.yes": {
    "message": "A parancsfájlok futtatása jelenleg engedélyezett"
  },
  "alwaysAsk": {
    "message": "Megerősítés kérése minden alkalommal"
  },
  "audio.samples": {
    "message": "Hangminták"
  },
  "bookmarkSync.confirm": {
    "message": "A NoScript feltehetően mentett konfigurációs könyvjelzőt talált:\n$1.\nKívánja felülírni a jelenlegi NoScript konfigurációját a könyvjelző tartalmával?"
  },
  "bookmarkSync.message": {
    "message": "Ez a könyvjelző szinkronizációt segít elő a Weave/XMarks kiterjesztés szolgáltatásainak segítségével."
  },
  "bookmarkSync.title": {
    "message": "NoScript konfigurációs könyvjelző"
  },
  "changelog": {
    "message": "Fejlesztési napló"
  },
  "changelog.tip": {
    "message": "Tekintse meg a fejlesztési naplót"
  },
  "confirm": {
    "message": "Biztos benne?"
  },
  "disable": {
    "message": "$1 letiltása"
  },
  "disable.accessKey": {
    "message": "l"
  },
  "distrust": {
    "message": "Megbízhatatlan: $1"
  },
  "extensionContributors": {
    "message": "Közreműködtek:"
  },
  "extensionContributors.tip": {
    "message": "Azok a személyek, akiknek köszönhető ez a kiterjesztés"
  },
  "extensionCreator.tip": {
    "message": "Keresse fel a szerző honlapját"
  },
  "extensionCreatorLabel": {
    "message": "Szerző:"
  },
  "extensionHomepage.tip": {
    "message": "Keresse fel a kiterjesztés honlapját"
  },
  "extensions.{73a6fe31-595d-460b-a920-fcc0f8843232}.description": {
    "message": "Extra védelem a Firefoxhoz…"
  },
  "forbidGlobal": {
    "message": "A parancsfájlok általános letiltása (ajánlott)"
  },
  "forbidLocal": {
    "message": "Letiltás: $1"
  },
  "global.warning.text": {
    "message": "Ön általánosan (minden webhelyhez) kívánja engedélyezni a parancsfájlok futtatását.\nEz veszélyes lehet.\nValóban kívánja folytatni?"
  },
  "global.warning.title": {
    "message": "Figyelem!"
  },
  "informaction.tip": {
    "message": "Keresse fel az InformAction honlapját"
  },
  "license": {
    "message": "Licenc"
  },
  "license.tip": {
    "message": "Olvassa el a végfelhasználói licencszerződést"
  },
  "logo.tip": {
    "message": "Keresse fel a kiterjesztés honlapját"
  },
  "metaRefresh.notify": {
    "message": "NoScript blokkolta a <META> átirányítás a <NOSCRIPT> elemen belül: $1 - $2 mp."
  },
  "metaRefresh.notify.follow": {
    "message": "Átirányítás követése"
  },
  "metaRefresh.notify.follow.accessKey": {
    "message": "i"
  },
  "notify.options": {
    "message": "Opciók"
  },
  "notify.options.accessKey": {
    "message": "O"
  },
  "notifyHide": {
    "message": "Elrejtés $1 másodperc után"
  },
  "reset.title": {
    "message": "NoScript alaphelyzetbe állítása"
  },
  "reset.warning": {
    "message": "A NoScript valamennyi beállítása alaphelyzetbe kerül.\nA felhasználó által a weboldalakhoz beállított szkriptek tiltásai is törlődnek.\n\nEz a művelet nem vonható vissza.\nValóban szeretné folytatni?"
  },
  "siteInfo.confirm": {
    "message": "Infót kér a(z) \"$1\" oldalról\na(z) $2. kérés segítségével.\nFolytatja?"
  },
  "siteInfo.tooltip": {
    "message": "Középső kattintás vagy shift+kattintás az oldal információhoz…"
  },
  "sponsor.tip": {
    "message": "Keresse fel a szponzor honlapját"
  },
  "trust": {
    "message": "Megbízható: $1"
  },
  "unsafeReload.warning": {
    "message": "Gyanús elem újratöltése a következő címről:\n\n $1 [$2]\n\nA(z) [$3]\n\ncímről a NoScript nem óvja a kérést!\n"
  },
  "untrustedOrigin": {
    "message": "megbízhatatlan eredet"
  },
  "version": {
    "message": "Változat $1"
  },
  "xss.notify.generic": {
    "message": "A NoScript kiszűrt egy lehetséges XSS szkriptet a $1 oldalról. Technikai részleteket a konzol tartalmaz."
  },
  "xss.notify.showConsole": {
    "message": "Konzol megjelenítése…"
  },
  "xss.notify.showConsole.accessKey": {
    "message": "K"
  },
  "xss.reason.filterXGet": {
    "message": "Gyanús hozzáférés kezelve. Eredeti cím [$1] hozzáférést kért a [$2] címhez. Kezelt cím: [$3]."
  },
  "xss.reason.filterXGetRef": {
    "message": "Gyanús hozzáférési üzenet kezelve. Cím [$1] hozzáférést kért a [$2] címhez. Kezelt üzenet: [$3]."
  },
  "xss.reason.filterXPost": {
    "message": "Gyanús átvitel a [$2] címről a [$1] címre kezelve: átalakítva csak átvételre (GET)."
  }
}